1 bem 0.00444037401238937    Change: + 5
2 cym 0.00465371725942578    Change: 0
3 bis 0.00551292504624007    Change: + 6
4 fin 0.00609089587897115    Change: + 12
5 toj 0.00637812221104079    Change: + 6
6 ktu 0.00686017300117915    Change: + 4
7 mam 0.00691619965828745    Change: - 6
8 kng 0.00692530970525431    Change: + 4
9 lat 0.00708875172761281    Change: + 16
10 lua 0.00714994082701256    Change: + 11
11 toi 0.00720509785717734    Change: + 2
12 aka_asante 0.00730873833492643    Change: + 11
13 tzh 0.00731531742777252    Change: + 4
14 tsz 0.00772289073228382    Change: + 19
15 crs 0.00780405361576847    Change: + 17
16 nyn 0.0082310492489738    Change: - 13
17 sco 0.00838704200935744    Change: + 21
18 lug 0.00849198165792919    Change: - 14
19 kin 0.00851272729405069    Change: - 1
20 lun 0.00851916089253871    Change: + 26
21 koo 0.00859626606016125    Change: - 13
22 cha 0.00859853789890336    Change: + 12
23 zam 0.00863137427309623    Change: + 4
24 tpi 0.00870714230759464    Change: - 17
25 sna 0.00875033580536328    Change: + 22
26 ina 0.00885375479787528    Change: - 6
27 yao 0.00903311217683481    Change: + 27
28 pis 0.00904115239454291    Change: + 55
29 run 0.00923929501093463    Change: - 10
30 lin_tones 0.0094980619054521    Change: - 8
31 flm 0.00960117604106809    Change: + 10
32 eng 0.00974095425351659    Change: + 29
33 nym 0.00984318535186498    Change: - 19
34 suk 0.0098705962320295    Change: - 19
35 ndo 0.00995762211505317    Change: - 30
36 guu 0.010071511941685    Change: - 7
37 aka_akuapem 0.010382803973059    Change: + 2
38 kng_AO 0.0104949155117211    Change: - 14
39 ita 0.0105329429507597    Change: + 17
40 nbl 0.0106241617248582    Change: + 2
41 afr 0.010688344446002    Change: + 2
42 amc 0.0108374233650774    Change: + 22
43 lat_1 0.0110900837223334    Change: + 34
44 cof 0.0112087023841747    Change: + 14
45 cjk 0.0112137865693306    Change: + 25
46 loz 0.0112240392459574    Change: - 20
47 hlt 0.0113649776296566    Change: + 6
48 rmy 0.0114487541585722    Change: + 2
49 nso 0.0115682875111296    Change: + 47
50 mxi 0.0116922613120546    Change: - 10
51 jiv 0.0118113409424539    Change: + 31
52 huu 0.01186990572467    Change: + 23
53 tsn 0.0118724526998702    Change: - 2
54 est 0.0121391299614047    Change: + 17
55 bci 0.0121604243078762    Change: + 4
56 ace 0.0121662613176187    Change: - 1
57 cnh 0.0122115398887044    Change: + 73
58 kde 0.0123556439552368    Change: + 14
59 pov 0.0123723743646596    Change: - 24
60 ctd 0.0124172763417841    Change: + 21
61 nba 0.0124215958045057    Change: + 31
62 kqn 0.0124411911634716    Change: - 2
63 vmw 0.0125035796954925    Change: - 27
64 nzi 0.0125285083392937    Change: + 4
65 ido 0.0125403644060575    Change: + 8
66 eus 0.0126524881382599    Change: - 36
67 umb 0.0126679155610383    Change: + 18
68 amr 0.0127018352745342    Change: - 31
69 ssw 0.012876673466585    Change: - 7
70 btb 0.0128777357562111    Change: + 28
71 kmb 0.0130032839593646    Change: + 13
72 ada 0.0130092650178365    Change: + 16
73 sey 0.0130618027569126    Change: - 10
74 src 0.0132435972111441    Change: + 19
75 nno 0.0132791415687081    Change: - 6
76 sot 0.0133269128280347    Change: + 14
77 bin 0.0133941611102018    Change: - 32
78 bba 0.0134093012283976    Change: - 29
79 nob 0.0135488805033461    Change: - 5
80 ztu 0.0135811218945809    Change: + 20
81 njo 0.0137535498615761    Change: + 23
82 shp 0.0137742697328152    Change: - 54
83 pcm 0.0139288376177585    Change: + 26
84 011 0.014021811604794    Change: + 39
85 tzc 0.0140913313575845    Change: + 46
86 nya_chinyanja 0.0141295539305845    Change: + 53
87 udhr-unicode/letters_english.txt.clean.tra 0.0141661928516064    Change: + 14
88 bug 0.0143576322573828    Change: + 20
89 snn 0.0144020931691317    Change: + 29
90 lia 0.0144240246383921    Change: - 33
91 zul 0.0144326243068206    Change: - 5
92 roh 0.0145004186778319    Change: - 13
93 tet 0.0145956373823467    Change: - 62
94 hrv 0.0146385424514274    Change: + 3
95 kek 0.0146566516535602    Change: - 4
96 tzm 0.0146642564423717    Change: - 2
97 gle 0.014694790127696    Change: - 10
98 nya_chechewa 0.0147780550197909    Change: + 4
99 hea 0.0149291924193883    Change: - 55
100 hms 0.0149514219054523    Change: - 48
101 fij 0.0150674821316195    Change: + 33
102 jav 0.0150703935900516    Change: + 27
103 ron_1953 0.0150999360085682    Change: - 4
104 bfa 0.0152254691264712    Change: + 29
105 lot 0.0153297880982432    Change: + 44
106 hus 0.0154110053565077    Change: + 15
107 lad 0.0154787222745819    Change: + 5
108 krl 0.0157998494896989    Change: + 30
109 quy 0.0158944601579674    Change: - 6
110 009 0.0159211587935367    Change: + 22
111 gla 0.0159281223459136    Change: - 33
112 xho 0.0159866392918537    Change: + 35
113 lue 0.0160212217651364    Change: + 7
114 qxu 0.0161469641950538    Change: + 14
115 men 0.0163327650939383    Change: + 27
116 ame 0.0164671637177767    Change: - 50
117 udhr-unicode/letters_polish.txt.clean.tra 0.0165201898327482    Change: + 24
118 guc 0.0165425547894773    Change: - 13
119 aka_fante 0.0166012023475262    Change: + 8
120 gaa 0.0166868299770844    Change: + 34
121 udhr-unicode/letters_french.txt.clean.tra 0.0168584450825988    Change: - 26
122 gyr 0.0169401613759872    Change: + 23
123 mzi 0.0169519559669155    Change: - 9
124 qvc 0.016980718117564    Change: - 59
125 ban 0.0169812696159461    Change: + 19
126 dga 0.0170335445572782    Change: + 43
127 lus 0.0170491664098608    Change: + 26
128 yad 0.0170820182438832    Change: - 52
129 yap 0.0171076161877435    Change: + 58
130 ppl 0.0172416192302896    Change: - 24
131 quc 0.0174033479179042    Change: - 7
132 cic 0.0174249407950825    Change: + 35
133 dan 0.0174477030570027    Change: - 14
134 aii 0.0175414058319378    Change: + 6
135 ron_1993 0.0177252692887254    Change: + 1
136 ron_2006 0.0177252692887254    Change: + 1
137 fra 0.0177484651868121    Change: - 48
138 qxa 0.0179501338277325    Change: - 28
139 bcl 0.0183042732857949    Change: + 35
140 agr 0.0183319952344383    Change: + 18
141 ibb 0.0184028687834871    Change: + 11
142 qvm 0.0184288213475225    Change: + 19
143 quz 0.0184646132199267    Change: - 32
144 kwi 0.018530061942539    Change: - 28
145 als 0.0185987380539843    Change: + 17
146 cbi 0.0186027625337522    Change: + 36
147 pbb 0.0186519490459962    Change: - 40
148 qva 0.0186949473400575    Change: - 13
149 cbs 0.018700085696748    Change: + 42
150 plt 0.0188214001910834    Change: + 44
151 prq 0.0188992852003278    Change: + 42
152 sus 0.0190048474791872    Change: + 20
153 spa 0.0191045962605551    Change: - 10
154 mkd 0.0191343904481611    Change: + 27
155 ind 0.0191854915546588    Change: - 42
156 cjk_AO 0.0194891959116386    Change: - 5
157 cos 0.01976084945686    Change: + 21
158 mad 0.0199554545203311    Change: + 6
159 epo 0.0199817995127837    Change: + 7
160 mly_arab 0.0199991102685286    Change: - 45
161 kha 0.0200476158315174    Change: + 49
162 qwh 0.0201831295519957    Change: + 8
163 ccx 0.0204041449565192    Change: + 10
164 cbu 0.0205269997494315    Change: + 4
165 tiv 0.0205302541862114    Change: + 36
166 lnc 0.0205399976346771    Change: - 7
167 prv 0.0207047705933278    Change: - 10
168 not 0.0207058567679473    Change: - 5
169 acu_1 0.0207387812739172    Change: + 29
170 cpu 0.020742167557158    Change: + 36
171 glg 0.0208498848266529    Change: + 6
172 hat_kreyol 0.020887766094011    Change: + 12
173 chk 0.0208965375955759    Change: - 48
174 vec 0.0209256396745744    Change: + 15
175 blu 0.0209522111755123    Change: - 49
176 sun 0.0209621323429508    Change: + 7
177 wwa 0.020986643243174    Change: - 22
178 qxn 0.0210374092657165    Change: - 28
179 bos_latn 0.0212376326933485    Change: - 8
180 rmn_1 0.0212933691836068    Change: + 27
181 nds 0.0213303736752949    Change: + 35
182 eml 0.0213353636534395    Change: - 36
183 010 0.0213888997434516    Change: - 116
184 mcf 0.0214041080615115    Change: - 136
185 emk 0.0214373403332997    Change: + 10
186 qvh 0.0216803511667996    Change: - 7
187 cab 0.021738164560479    Change: + 12
188 cat 0.0217787986033046    Change: - 13
189 qvn 0.0219067906922215    Change: - 41
190 fuc 0.0219631646273435    Change: + 25
191 008 0.02199501830435    Change: + 14
192 cak 0.0220463481206068    Change: - 12
193 dyo 0.022255839367065    Change: + 19
194 pau 0.0222619487359469    Change: - 77
195 lin 0.0223184752673736    Change: - 35
196 war 0.0224336401239297    Change: - 11
197 pon 0.022565837835296    Change: - 117
198 yua 0.0225753873069865    Change: - 1
199 deu_1996 0.0225976130500081    Change: - 9
200 deu_1901 0.0226808513467609    Change: - 8
201 min 0.022822976297341    Change: - 13
202 mly_latn 0.0230015853872634    Change: - 37
203 hni 0.0230885871068025    Change: + 23
204 arn 0.0231194049442941    Change: + 14
205 srp_latn 0.0234739891328392    Change: - 9
206 fur 0.0234790169596777    Change: - 6
207 csa 0.0235002897828607    Change: + 2
208 sme 0.0235421636832964    Change: 0
209 swh 0.0239080010136431    Change: + 13
210 cot 0.0241860285185034    Change: - 54
211 slv 0.0242244920976264    Change: 0
212 nhn 0.0243146615978475    Change: - 36
213 tob 0.024351894663399    Change: - 9
214 cbr 0.0243719114716192    Change: + 39
215 por_BR 0.0244007014968049    Change: + 2
216 ceb 0.0244330343966585    Change: - 13
217 por_PT 0.0245830781509106    Change: - 3
218 bre 0.0246059951188395    Change: + 9
219 nld 0.0246328040295496    Change: + 12
220 mic 0.0246448357965682    Change: - 98
221 bul 0.0246700466108994    Change: + 17
222 ayr 0.024714052205887    Change: - 3
223 ykg 0.0248336457798019    Change: - 3
224 tso_MZ 0.0248665868922887    Change: + 1
225 qud 0.0248963579083777    Change: - 39
226 tbz 0.024944921249267    Change: - 13
227 swe 0.0254319063941685    Change: + 6
228 hat_popular 0.0259405712368474    Change: 0
229 ast 0.0262420590059298    Change: - 27
230 gjn 0.0266391375733079    Change: + 7
231 knc 0.0266826416867451    Change: + 1
232 uig_latn 0.0269429070557386    Change: - 8
233 kri 0.0269775604077424    Change: + 16
234 gax 0.027017070070722    Change: + 22
235 ote 0.0271451304452585    Change: + 19
236 acu 0.0273158405901752    Change: + 9
237 gkp 0.0273512159601989    Change: + 11
238 hva 0.027354779253845    Change: + 27
239 gag 0.0274640992053845    Change: + 16
240 fri 0.0274809039169947    Change: + 4
241 tca 0.0276181273238303    Change: 0
242 maz 0.0277653208069208    Change: + 4
243 oss 0.027864768006495    Change: + 7
244 mxv 0.0279098952768112    Change: + 19
245 ltz 0.028003938840426    Change: - 15
246 tur 0.0282383103167802    Change: - 3
247 uzn_latn 0.0283674948400042    Change: - 7
248 ilo 0.0285447598024865    Change: - 13
249 som 0.028794100654281    Change: + 9
250 snk 0.0288469192780795    Change: + 1
251 vep 0.0289084879733643    Change: - 12
252 bam 0.029199872427641    Change: + 12
253 kea 0.029549185742255    Change: - 24
254 cni 0.029915632749676    Change: - 2
255 top 0.0300568226627741    Change: - 19
256 heb 0.0301477016088277    Change: + 4
257 kal 0.0302271132549667    Change: - 34
258 pam 0.030273198287424    Change: - 11
259 dip 0.0305953840871052    Change: + 9
260 hsf 0.0306908511007575    Change: + 15
261 hil 0.0307279582199785    Change: - 2
262 qug 0.0310276664702211    Change: - 41
263 mah 0.0312543869418745    Change: - 21
264 ven 0.0316564049035511    Change: + 2
265 srp_cyrl 0.0321669037745838    Change: - 4
266 bos_cyrl 0.032348830461597    Change: - 4
267 kat 0.0324182529929051    Change: - 10
268 chj 0.0326305604026914    Change: - 1
269 rmn 0.033537191415779    Change: 0
270 haw 0.0338733256744602    Change: + 3
271 srr 0.0339463379411882    Change: + 6
272 pes_2 0.0341051325085373    Change: + 6
273 cbt 0.0345160712469574    Change: - 39
274 tgl 0.0345192351831866    Change: - 3
275 evn 0.0350516604120138    Change: + 6
276 ibo 0.0354443820239089    Change: + 4
277 fao 0.0354754686498162    Change: + 2
278 sah 0.0357998853043611    Change: - 4
279 khk 0.0361787366558038    Change: - 9
280 auv 0.0363503377508468    Change: - 8
281 mlt 0.0364634306208012    Change: - 5
282 xsm 0.0367712862726113    Change: + 12
283 pes_1 0.0372586835714118    Change: + 5
284 tem 0.037342144594027    Change: + 2
285 ddn 0.0376829772442312    Change: - 2
286 fon 0.0387591421880683    Change: + 5
287 hau_NG 0.0389790367357847    Change: + 6
288 lav 0.0395024915200782    Change: + 4
289 007 0.0396964162303361    Change: 0
290 eve 0.0404832779799559    Change: + 9
291 hun 0.0405028428410981    Change: - 4
292 lit 0.0406914259954053    Change: + 6
293 tam 0.0409619490948314    Change: + 3
294 kir 0.0413029389412571    Change: + 1
295 hau_NE 0.0415220600113517    Change: + 5
296 ewe 0.042121243139863    Change: + 1
297 tgk 0.0422562922048781    Change: + 7
298 mos 0.042317207290815    Change: + 3
299 auc 0.0424586607369253    Change: - 15
300 kbp 0.0437094808300153    Change: + 2
301 tuk_latn 0.0437192686393098    Change: + 4
302 mcd 0.0437939858180122    Change: - 17
303 arl 0.0447950533893068    Change: - 21
304 azj_cyrl 0.0451819783200776    Change: + 5
305 shk 0.0453368707972087    Change: - 2
306 azj_latn 0.04546945280997    Change: + 4
307 nav 0.0455737980126778    Change: - 1
308 dag 0.045870789105291    Change: + 3
309 div 0.0459394991476361    Change: - 1
310 ton 0.0463458146857341    Change: - 20
311 wol 0.0465066814877487    Change: + 6
312 ajg 0.0465172743010319    Change: 0
313 wln 0.0488992084355982    Change: - 6
314 rus 0.0491963035402655    Change: + 9
315 hna 0.0493271345825325    Change: 0
316 uig_arab 0.0493725921207054    Change: - 2
317 uzn_cyrl 0.0495421736188419    Change: - 1
318 ura 0.0495541300542179    Change: + 7
319 pcd 0.0497922337911802    Change: - 6
320 miq 0.0499650561321999    Change: + 2
321 kjh 0.0500054835054606    Change: - 1
322 gug 0.0501787255763031    Change: + 4
323 ckb 0.0505622867203109    Change: - 4
324 tyv 0.0509473968566302    Change: - 6
325 isl 0.0512820316974421    Change: - 4
326 pol 0.0524001047752333    Change: - 2
327 tah 0.0527387614207726    Change: 0
328 kaz 0.0540084894638513    Change: 0
329 arb 0.0544092983086759    Change: + 1
330 ell_monotonic 0.0567813893072116    Change: + 1
331 tat 0.0571161786169913    Change: + 1
332 urd 0.0601773414642797    Change: + 3
333 mri 0.060624188207657    Change: - 4
334 cjs 0.0609061930208467    Change: + 3
335 pnb 0.0609910185073189    Change: - 2
336 hye 0.0610611107691101    Change: + 5
337 ukr 0.061258094449718    Change: + 1
338 hsb 0.0617308469807814    Change: - 2
339 zro 0.0619194737474063    Change: - 5
340 alt 0.0623915144288544    Change: 0
341 tuk_cyrl 0.0631196483367587    Change: + 1
342 bod 0.0654197465851989    Change: - 3
343 san 0.0687881130157958    Change: + 1
344 skr 0.0688188625087146    Change: - 1
345 ydd 0.0709489649259129    Change: + 2
346 rar 0.071241814691992    Change: + 2
347 boa 0.0714452227858923    Change: - 2
348 smo 0.0735448477252453    Change: - 2
349 sag 0.0757933599817233    Change: + 2
350 slk 0.0776690152360358    Change: 0
351 vie 0.078431095338306    Change: - 2
352 mal 0.0802738476396995    Change: 0
353 abk 0.0847341873760692    Change: 0
354 nep 0.0883806348456905    Change: + 1
355 ces 0.0886970852635591    Change: - 1
356 bel 0.0911462922138211    Change: + 1
357 mar 0.0920205204134218    Change: + 2
358 kan 0.0936365381865837    Change: - 2
359 yor 0.0944693671347622    Change: - 1
360 guj 0.0994597667143119    Change: 0
361 hin 0.100147812328917    Change: 0
362 ben 0.100890956068749    Change: 0
363 mya 0.1063405494868    Change: 0
364 mai 0.112578651661116    Change: 0
365 bho 0.116606510890629    Change: 0
366 mag 0.117752749960874    Change: 0
367 ell_polytonic 0.122406492260797    Change: 0
368 pan 0.128836957701502    Change: 0
369 khm 0.132045884056681    Change: + 1
370 ojb 0.134714420431972    Change: - 1
371 csw 0.137429070971948    Change: 0
372 lns 0.144658300821287    Change: 0
373 lao 0.178430735605953    Change: 0
374 ike 0.185500575998598    Change: 0
375 tha 0.190239100518687    Change: 0
376 udhr-unicode/beethoven.mid.txt.tra 0.238497133531682    Change: + 2
377 udhr-unicode/elgar.txt.tra 0.23956226975093    Change: + 2
378 vai 0.248913345679272    Change: - 2
379 tir 0.263488297459244    Change: - 2
380 amh 0.282841040186546    Change: 0
381 iii 0.373144056783815    Change: 0
382 jpn 0.379759340205044    Change: 0
383 kor 0.490270306749401    Change: 0
384 cmn_hant 0.512339637558703    Change: 0
385 cmn_hans 0.530637372452157    Change: 0
386 udhr-unicode/chopin_midi.txt.tra 1.01571616124674    Change: 0
