Starting language identification (program version: 15-07-03).
Restarts: 20
Greedy search iterations constant: 0
Greedy search iterations factor: 5
Limit swaps to best ngrams: 10
Old files: 0
Special: 0
DSLCC files? 0
Decipherment oracle online? 0
Ciphertext file(s): trishort (trishort)

Plaintext file(s): udhr-unicode/*.tra (udhr-unicode/udhr-007.txt.tra udhr-unicode/udhr-008.txt.tra udhr-unicode/udhr-009.txt.tra udhr-unicode/udhr-010.txt.tra udhr-unicode/udhr-011.txt.tra udhr-unicode/udhr-abk.txt.tra udhr-unicode/udhr-ace.txt.tra udhr-unicode/udhr-acu.txt.tra udhr-unicode/udhr-acu_1.txt.tra udhr-unicode/udhr-ada.txt.tra udhr-unicode/udhr-afr.txt.tra udhr-unicode/udhr-agr.txt.tra udhr-unicode/udhr-aii.txt.tra udhr-unicode/udhr-ajg.txt.tra udhr-unicode/udhr-aka_akuapem.txt.tra udhr-unicode/udhr-aka_asante.txt.tra udhr-unicode/udhr-aka_fante.txt.tra udhr-unicode/udhr-als.txt.tra udhr-unicode/udhr-alt.txt.tra udhr-unicode/udhr-amc.txt.tra udhr-unicode/udhr-ame.txt.tra udhr-unicode/udhr-amh.txt.tra udhr-unicode/udhr-amr.txt.tra udhr-unicode/udhr-arb.txt.tra udhr-unicode/udhr-arl.txt.tra udhr-unicode/udhr-arn.txt.tra udhr-unicode/udhr-ast.txt.tra udhr-unicode/udhr-auc.txt.tra udhr-unicode/udhr-auv.txt.tra udhr-unicode/udhr-ayr.txt.tra udhr-unicode/udhr-azj_cyrl.txt.tra udhr-unicode/udhr-azj_latn.txt.tra udhr-unicode/udhr-bam.txt.tra udhr-unicode/udhr-ban.txt.tra udhr-unicode/udhr-bba.txt.tra udhr-unicode/udhr-bci.txt.tra udhr-unicode/udhr-bcl.txt.tra udhr-unicode/udhr-bel.txt.tra udhr-unicode/udhr-bem.txt.tra udhr-unicode/udhr-ben.txt.tra udhr-unicode/udhr-bfa.txt.tra udhr-unicode/udhr-bho.txt.tra udhr-unicode/udhr-bin.txt.tra udhr-unicode/udhr-bis.txt.tra udhr-unicode/udhr-blu.txt.tra udhr-unicode/udhr-boa.txt.tra udhr-unicode/udhr-bod.txt.tra udhr-unicode/udhr-bos_cyrl.txt.tra udhr-unicode/udhr-bos_latn.txt.tra udhr-unicode/udhr-bre.txt.tra udhr-unicode/udhr-btb.txt.tra udhr-unicode/udhr-bug.txt.tra udhr-unicode/udhr-bul.txt.tra udhr-unicode/udhr-cab.txt.tra udhr-unicode/udhr-cak.txt.tra udhr-unicode/udhr-cat.txt.tra udhr-unicode/udhr-cbi.txt.tra udhr-unicode/udhr-cbr.txt.tra udhr-unicode/udhr-cbs.txt.tra udhr-unicode/udhr-cbt.txt.tra udhr-unicode/udhr-cbu.txt.tra udhr-unicode/udhr-ccx.txt.tra udhr-unicode/udhr-ceb.txt.tra udhr-unicode/udhr-ces.txt.tra udhr-unicode/udhr-cha.txt.tra udhr-unicode/udhr-chj.txt.tra udhr-unicode/udhr-chk.txt.tra udhr-unicode/udhr-cic.txt.tra udhr-unicode/udhr-cjk.txt.tra udhr-unicode/udhr-cjk_AO.txt.tra udhr-unicode/udhr-cjs.txt.tra udhr-unicode/udhr-ckb.txt.tra udhr-unicode/udhr-cmn_hans.txt.tra udhr-unicode/udhr-cmn_hant.txt.tra udhr-unicode/udhr-cnh.txt.tra udhr-unicode/udhr-cni.txt.tra udhr-unicode/udhr-cof.txt.tra udhr-unicode/udhr-cos.txt.tra udhr-unicode/udhr-cot.txt.tra udhr-unicode/udhr-cpu.txt.tra udhr-unicode/udhr-crs.txt.tra udhr-unicode/udhr-csa.txt.tra udhr-unicode/udhr-csw.txt.tra udhr-unicode/udhr-ctd.txt.tra udhr-unicode/udhr-cym.txt.tra udhr-unicode/udhr-dag.txt.tra udhr-unicode/udhr-dan.txt.tra udhr-unicode/udhr-ddn.txt.tra udhr-unicode/udhr-deu_1901.txt.tra udhr-unicode/udhr-deu_1996.txt.tra udhr-unicode/udhr-dga.txt.tra udhr-unicode/udhr-dip.txt.tra udhr-unicode/udhr-div.txt.tra udhr-unicode/udhr-dyo.txt.tra udhr-unicode/udhr-ell_monotonic.txt.tra udhr-unicode/udhr-ell_polytonic.txt.tra udhr-unicode/udhr-emk.txt.tra udhr-unicode/udhr-eml.txt.tra udhr-unicode/udhr-eng.txt.tra udhr-unicode/udhr-epo.txt.tra udhr-unicode/udhr-est.txt.tra udhr-unicode/udhr-eus.txt.tra udhr-unicode/udhr-eve.txt.tra udhr-unicode/udhr-evn.txt.tra udhr-unicode/udhr-ewe.txt.tra udhr-unicode/udhr-fao.txt.tra udhr-unicode/udhr-fij.txt.tra udhr-unicode/udhr-fin.txt.tra udhr-unicode/udhr-flm.txt.tra udhr-unicode/udhr-fon.txt.tra udhr-unicode/udhr-fra.txt.tra udhr-unicode/udhr-fri.txt.tra udhr-unicode/udhr-fuc.txt.tra udhr-unicode/udhr-fur.txt.tra udhr-unicode/udhr-gaa.txt.tra udhr-unicode/udhr-gag.txt.tra udhr-unicode/udhr-gax.txt.tra udhr-unicode/udhr-gjn.txt.tra udhr-unicode/udhr-gkp.txt.tra udhr-unicode/udhr-gla.txt.tra udhr-unicode/udhr-gle.txt.tra udhr-unicode/udhr-glg.txt.tra udhr-unicode/udhr-guc.txt.tra udhr-unicode/udhr-gug.txt.tra udhr-unicode/udhr-guj.txt.tra udhr-unicode/udhr-guu.txt.tra udhr-unicode/udhr-gyr.txt.tra udhr-unicode/udhr-hat_kreyol.txt.tra udhr-unicode/udhr-hat_popular.txt.tra udhr-unicode/udhr-hau_NE.txt.tra udhr-unicode/udhr-hau_NG.txt.tra udhr-unicode/udhr-haw.txt.tra udhr-unicode/udhr-hea.txt.tra udhr-unicode/udhr-heb.txt.tra udhr-unicode/udhr-hil.txt.tra udhr-unicode/udhr-hin.txt.tra udhr-unicode/udhr-hlt.txt.tra udhr-unicode/udhr-hms.txt.tra udhr-unicode/udhr-hna.txt.tra udhr-unicode/udhr-hni.txt.tra udhr-unicode/udhr-hrv.txt.tra udhr-unicode/udhr-hsb.txt.tra udhr-unicode/udhr-hsf.txt.tra udhr-unicode/udhr-hun.txt.tra udhr-unicode/udhr-hus.txt.tra udhr-unicode/udhr-huu.txt.tra udhr-unicode/udhr-hva.txt.tra udhr-unicode/udhr-hye.txt.tra udhr-unicode/udhr-ibb.txt.tra udhr-unicode/udhr-ibo.txt.tra udhr-unicode/udhr-ido.txt.tra udhr-unicode/udhr-iii.txt.tra udhr-unicode/udhr-ike.txt.tra udhr-unicode/udhr-ilo.txt.tra udhr-unicode/udhr-ina.txt.tra udhr-unicode/udhr-ind.txt.tra udhr-unicode/udhr-isl.txt.tra udhr-unicode/udhr-ita.txt.tra udhr-unicode/udhr-jav.txt.tra udhr-unicode/udhr-jiv.txt.tra udhr-unicode/udhr-jpn.txt.tra udhr-unicode/udhr-kal.txt.tra udhr-unicode/udhr-kan.txt.tra udhr-unicode/udhr-kat.txt.tra udhr-unicode/udhr-kaz.txt.tra udhr-unicode/udhr-kbp.txt.tra udhr-unicode/udhr-kde.txt.tra udhr-unicode/udhr-kea.txt.tra udhr-unicode/udhr-kek.txt.tra udhr-unicode/udhr-kha.txt.tra udhr-unicode/udhr-khk.txt.tra udhr-unicode/udhr-khm.txt.tra udhr-unicode/udhr-kin.txt.tra udhr-unicode/udhr-kir.txt.tra udhr-unicode/udhr-kjh.txt.tra udhr-unicode/udhr-kmb.txt.tra udhr-unicode/udhr-knc.txt.tra udhr-unicode/udhr-kng.txt.tra udhr-unicode/udhr-kng_AO.txt.tra udhr-unicode/udhr-koo.txt.tra udhr-unicode/udhr-kor.txt.tra udhr-unicode/udhr-kqn.txt.tra udhr-unicode/udhr-kri.txt.tra udhr-unicode/udhr-krl.txt.tra udhr-unicode/udhr-ktu.txt.tra udhr-unicode/udhr-kwi.txt.tra udhr-unicode/udhr-lad.txt.tra udhr-unicode/udhr-lao.txt.tra udhr-unicode/udhr-lat.txt.tra udhr-unicode/udhr-lat_1.txt.tra udhr-unicode/udhr-lav.txt.tra udhr-unicode/udhr-lia.txt.tra udhr-unicode/udhr-lin.txt.tra udhr-unicode/udhr-lin_tones.txt.tra udhr-unicode/udhr-lit.txt.tra udhr-unicode/udhr-lnc.txt.tra udhr-unicode/udhr-lns.txt.tra udhr-unicode/udhr-lot.txt.tra udhr-unicode/udhr-loz.txt.tra udhr-unicode/udhr-ltz.txt.tra udhr-unicode/udhr-lua.txt.tra udhr-unicode/udhr-lue.txt.tra udhr-unicode/udhr-lug.txt.tra udhr-unicode/udhr-lun.txt.tra udhr-unicode/udhr-lus.txt.tra udhr-unicode/udhr-mad.txt.tra udhr-unicode/udhr-mag.txt.tra udhr-unicode/udhr-mah.txt.tra udhr-unicode/udhr-mai.txt.tra udhr-unicode/udhr-mal.txt.tra udhr-unicode/udhr-mam.txt.tra udhr-unicode/udhr-mar.txt.tra udhr-unicode/udhr-maz.txt.tra udhr-unicode/udhr-mcd.txt.tra udhr-unicode/udhr-mcf.txt.tra udhr-unicode/udhr-men.txt.tra udhr-unicode/udhr-mic.txt.tra udhr-unicode/udhr-min.txt.tra udhr-unicode/udhr-miq.txt.tra udhr-unicode/udhr-mkd.txt.tra udhr-unicode/udhr-mlt.txt.tra udhr-unicode/udhr-mly_arab.txt.tra udhr-unicode/udhr-mly_latn.txt.tra udhr-unicode/udhr-mos.txt.tra udhr-unicode/udhr-mri.txt.tra udhr-unicode/udhr-mxi.txt.tra udhr-unicode/udhr-mxv.txt.tra udhr-unicode/udhr-mya.txt.tra udhr-unicode/udhr-mzi.txt.tra udhr-unicode/udhr-nav.txt.tra udhr-unicode/udhr-nba.txt.tra udhr-unicode/udhr-nbl.txt.tra udhr-unicode/udhr-ndo.txt.tra udhr-unicode/udhr-nds.txt.tra udhr-unicode/udhr-nep.txt.tra udhr-unicode/udhr-nhn.txt.tra udhr-unicode/udhr-njo.txt.tra udhr-unicode/udhr-nld.txt.tra udhr-unicode/udhr-nno.txt.tra udhr-unicode/udhr-nob.txt.tra udhr-unicode/udhr-not.txt.tra udhr-unicode/udhr-nso.txt.tra udhr-unicode/udhr-nya_chechewa.txt.tra udhr-unicode/udhr-nya_chinyanja.txt.tra udhr-unicode/udhr-nym.txt.tra udhr-unicode/udhr-nyn.txt.tra udhr-unicode/udhr-nzi.txt.tra udhr-unicode/udhr-ojb.txt.tra udhr-unicode/udhr-oss.txt.tra udhr-unicode/udhr-ote.txt.tra udhr-unicode/udhr-pam.txt.tra udhr-unicode/udhr-pan.txt.tra udhr-unicode/udhr-pau.txt.tra udhr-unicode/udhr-pbb.txt.tra udhr-unicode/udhr-pcd.txt.tra udhr-unicode/udhr-pcm.txt.tra udhr-unicode/udhr-pes_1.txt.tra udhr-unicode/udhr-pes_2.txt.tra udhr-unicode/udhr-pis.txt.tra udhr-unicode/udhr-plt.txt.tra udhr-unicode/udhr-pnb.txt.tra udhr-unicode/udhr-pol.txt.tra udhr-unicode/udhr-pon.txt.tra udhr-unicode/udhr-por_BR.txt.tra udhr-unicode/udhr-por_PT.txt.tra udhr-unicode/udhr-pov.txt.tra udhr-unicode/udhr-ppl.txt.tra udhr-unicode/udhr-prq.txt.tra udhr-unicode/udhr-prv.txt.tra udhr-unicode/udhr-quc.txt.tra udhr-unicode/udhr-qud.txt.tra udhr-unicode/udhr-qug.txt.tra udhr-unicode/udhr-quy.txt.tra udhr-unicode/udhr-quz.txt.tra udhr-unicode/udhr-qva.txt.tra udhr-unicode/udhr-qvc.txt.tra udhr-unicode/udhr-qvh.txt.tra udhr-unicode/udhr-qvm.txt.tra udhr-unicode/udhr-qvn.txt.tra udhr-unicode/udhr-qwh.txt.tra udhr-unicode/udhr-qxa.txt.tra udhr-unicode/udhr-qxn.txt.tra udhr-unicode/udhr-qxu.txt.tra udhr-unicode/udhr-rar.txt.tra udhr-unicode/udhr-rmn.txt.tra udhr-unicode/udhr-rmn_1.txt.tra udhr-unicode/udhr-rmy.txt.tra udhr-unicode/udhr-roh.txt.tra udhr-unicode/udhr-ron_1953.txt.tra udhr-unicode/udhr-ron_1993.txt.tra udhr-unicode/udhr-ron_2006.txt.tra udhr-unicode/udhr-run.txt.tra udhr-unicode/udhr-rus.txt.tra udhr-unicode/udhr-sag.txt.tra udhr-unicode/udhr-sah.txt.tra udhr-unicode/udhr-san.txt.tra udhr-unicode/udhr-sco.txt.tra udhr-unicode/udhr-sey.txt.tra udhr-unicode/udhr-shk.txt.tra udhr-unicode/udhr-shp.txt.tra udhr-unicode/udhr-skr.txt.tra udhr-unicode/udhr-slk.txt.tra udhr-unicode/udhr-slv.txt.tra udhr-unicode/udhr-sme.txt.tra udhr-unicode/udhr-smo.txt.tra udhr-unicode/udhr-sna.txt.tra udhr-unicode/udhr-snk.txt.tra udhr-unicode/udhr-snn.txt.tra udhr-unicode/udhr-som.txt.tra udhr-unicode/udhr-sot.txt.tra udhr-unicode/udhr-spa.txt.tra udhr-unicode/udhr-src.txt.tra udhr-unicode/udhr-srp_cyrl.txt.tra udhr-unicode/udhr-srp_latn.txt.tra udhr-unicode/udhr-srr.txt.tra udhr-unicode/udhr-ssw.txt.tra udhr-unicode/udhr-suk.txt.tra udhr-unicode/udhr-sun.txt.tra udhr-unicode/udhr-sus.txt.tra udhr-unicode/udhr-swe.txt.tra udhr-unicode/udhr-swh.txt.tra udhr-unicode/udhr-tah.txt.tra udhr-unicode/udhr-tam.txt.tra udhr-unicode/udhr-tat.txt.tra udhr-unicode/udhr-tbz.txt.tra udhr-unicode/udhr-tca.txt.tra udhr-unicode/udhr-tem.txt.tra udhr-unicode/udhr-tet.txt.tra udhr-unicode/udhr-tgk.txt.tra udhr-unicode/udhr-tgl.txt.tra udhr-unicode/udhr-tha.txt.tra udhr-unicode/udhr-tir.txt.tra udhr-unicode/udhr-tiv.txt.tra udhr-unicode/udhr-tob.txt.tra udhr-unicode/udhr-toi.txt.tra udhr-unicode/udhr-toj.txt.tra udhr-unicode/udhr-ton.txt.tra udhr-unicode/udhr-top.txt.tra udhr-unicode/udhr-tpi.txt.tra udhr-unicode/udhr-tsn.txt.tra udhr-unicode/udhr-tso_MZ.txt.tra udhr-unicode/udhr-tsz.txt.tra udhr-unicode/udhr-tuk_cyrl.txt.tra udhr-unicode/udhr-tuk_latn.txt.tra udhr-unicode/udhr-tur.txt.tra udhr-unicode/udhr-tyv.txt.tra udhr-unicode/udhr-tzc.txt.tra udhr-unicode/udhr-tzh.txt.tra udhr-unicode/udhr-tzm.txt.tra udhr-unicode/udhr-uig_arab.txt.tra udhr-unicode/udhr-uig_latn.txt.tra udhr-unicode/udhr-ukr.txt.tra udhr-unicode/udhr-umb.txt.tra udhr-unicode/udhr-ura.txt.tra udhr-unicode/udhr-urd.txt.tra udhr-unicode/udhr-uzn_cyrl.txt.tra udhr-unicode/udhr-uzn_latn.txt.tra udhr-unicode/udhr-vai.txt.tra udhr-unicode/udhr-vec.txt.tra udhr-unicode/udhr-ven.txt.tra udhr-unicode/udhr-vep.txt.tra udhr-unicode/udhr-vie.txt.tra udhr-unicode/udhr-vmw.txt.tra udhr-unicode/udhr-war.txt.tra udhr-unicode/udhr-wln.txt.tra udhr-unicode/udhr-wol.txt.tra udhr-unicode/udhr-wwa.txt.tra udhr-unicode/udhr-xho.txt.tra udhr-unicode/udhr-xsm.txt.tra udhr-unicode/udhr-yad.txt.tra udhr-unicode/udhr-yao.txt.tra udhr-unicode/udhr-yap.txt.tra udhr-unicode/udhr-ydd.txt.tra udhr-unicode/udhr-ykg.txt.tra udhr-unicode/udhr-yor.txt.tra udhr-unicode/udhr-yua.txt.tra udhr-unicode/udhr-zam.txt.tra udhr-unicode/udhr-zro.txt.tra udhr-unicode/udhr-ztu.txt.tra udhr-unicode/udhr-zul.txt.tra)


---

>START CTEXT: trishort	Mon Jun  1 05:43:52 MDT 2020
>START PTEXT: 'udhr-unicode/udhr-007.txt.tra' at Mon Jun  1 05:43:52 MDT 2020	[TOP SWAP DECIPH]	4.1492	-299.909364764188	*
>START PTEXT: 'udhr-unicode/udhr-008.txt.tra' at Mon Jun  1 05:43:57 MDT 2020	[TOP SWAP DECIPH]	4.1703	-311.883757022309
>START PTEXT: 'udhr-unicode/udhr-009.txt.tra' at Mon Jun  1 05:44:01 MDT 2020	[TOP SWAP DECIPH]	4.2700	-325.912944062957
>START PTEXT: 'udhr-unicode/udhr-010.txt.tra' at Mon Jun  1 05:44:05 MDT 2020	[TOP SWAP DECIPH]	4.5389	-325.159607348929
>START PTEXT: 'udhr-unicode/udhr-011.txt.tra' at Mon Jun  1 05:44:10 MDT 2020	[TOP SWAP DECIPH]	4.5409	-300.312505823243
>START PTEXT: 'udhr-unicode/udhr-abk.txt.tra' at Mon Jun  1 05:44:14 MDT 2020	[TOP SWAP DECIPH]	3.3176	-287.08495754901	*
>START PTEXT: 'udhr-unicode/udhr-ace.txt.tra' at Mon Jun  1 05:44:17 MDT 2020	[TOP SWAP DECIPH]	4.1353	-297.72928562889
>START PTEXT: 'udhr-unicode/udhr-acu.txt.tra' at Mon Jun  1 05:44:22 MDT 2020	[TOP SWAP DECIPH]	4.5281	-316.512004642032
>START PTEXT: 'udhr-unicode/udhr-acu_1.txt.tra' at Mon Jun  1 05:44:26 MDT 2020	[TOP SWAP DECIPH]	4.1949	-295.692952764611
>START PTEXT: 'udhr-unicode/udhr-ada.txt.tra' at Mon Jun  1 05:44:30 MDT 2020	[TOP SWAP DECIPH]	3.7876	-320.294275989657
>START PTEXT: 'udhr-unicode/udhr-afr.txt.tra' at Mon Jun  1 05:44:34 MDT 2020	[TOP SWAP DECIPH]	4.3601	-276.868432261589	*
>START PTEXT: 'udhr-unicode/udhr-agr.txt.tra' at Mon Jun  1 05:44:38 MDT 2020	[TOP SWAP DECIPH]	4.3549	-302.336591645203
>START PTEXT: 'udhr-unicode/udhr-aii.txt.tra' at Mon Jun  1 05:44:43 MDT 2020	[TOP SWAP DECIPH]	3.5210	-276.027422132869	*
>START PTEXT: 'udhr-unicode/udhr-ajg.txt.tra' at Mon Jun  1 05:44:46 MDT 2020	[TOP SWAP DECIPH]	3.9883	-302.730832604489
>START PTEXT: 'udhr-unicode/udhr-aka_akuapem.txt.tra' at Mon Jun  1 05:44:50 MDT 2020	[TOP SWAP DECIPH]	4.0882	-299.96522211249
>START PTEXT: 'udhr-unicode/udhr-aka_asante.txt.tra' at Mon Jun  1 05:44:54 MDT 2020	[TOP SWAP DECIPH]	3.9758	-294.308491349965
>START PTEXT: 'udhr-unicode/udhr-aka_fante.txt.tra' at Mon Jun  1 05:44:58 MDT 2020	[TOP SWAP DECIPH]	3.7878	-281.944365944382
>START PTEXT: 'udhr-unicode/udhr-als.txt.tra' at Mon Jun  1 05:45:02 MDT 2020	[TOP SWAP DECIPH]	4.2557	-276.846993662571
>START PTEXT: 'udhr-unicode/udhr-alt.txt.tra' at Mon Jun  1 05:45:06 MDT 2020	[TOP SWAP DECIPH]	3.6224	-296.414072424806
>START PTEXT: 'udhr-unicode/udhr-amc.txt.tra' at Mon Jun  1 05:45:10 MDT 2020	[TOP SWAP DECIPH]	4.3193	-301.912652514652
>START PTEXT: 'udhr-unicode/udhr-ame.txt.tra' at Mon Jun  1 05:45:14 MDT 2020	[TOP SWAP DECIPH]	4.2761	-328.438543299089
>START PTEXT: 'udhr-unicode/udhr-amh.txt.tra' at Mon Jun  1 05:45:19 MDT 2020	[TOP SWAP DECIPH]	
>>> Skipping udhr-unicode/udhr-amh.txt.tra due to extreme alphabet size mismatch.
>START PTEXT: 'udhr-unicode/udhr-amr.txt.tra' at Mon Jun  1 05:45:19 MDT 2020	[TOP SWAP DECIPH]	3.7481	-333.373751398612
>START PTEXT: 'udhr-unicode/udhr-arb.txt.tra' at Mon Jun  1 05:45:22 MDT 2020	[TOP SWAP DECIPH]	3.7843	-273.303751529641	*
>START PTEXT: 'udhr-unicode/udhr-arl.txt.tra' at Mon Jun  1 05:45:26 MDT 2020	[TOP SWAP DECIPH]	3.9706	-356.69948074199
>START PTEXT: 'udhr-unicode/udhr-arn.txt.tra' at Mon Jun  1 05:45:30 MDT 2020	[TOP SWAP DECIPH]	4.0578	-287.375635816352
>START PTEXT: 'udhr-unicode/udhr-ast.txt.tra' at Mon Jun  1 05:45:34 MDT 2020	[TOP SWAP DECIPH]	4.3582	-292.494169465283
>START PTEXT: 'udhr-unicode/udhr-auc.txt.tra' at Mon Jun  1 05:45:39 MDT 2020	[TOP SWAP DECIPH]	4.2379	-359.478583260453
>START PTEXT: 'udhr-unicode/udhr-auv.txt.tra' at Mon Jun  1 05:45:43 MDT 2020	[TOP SWAP DECIPH]	4.2372	-287.14482001023
>START PTEXT: 'udhr-unicode/udhr-ayr.txt.tra' at Mon Jun  1 05:45:47 MDT 2020	[TOP SWAP DECIPH]	4.1314	-296.532157487146
>START PTEXT: 'udhr-unicode/udhr-azj_cyrl.txt.tra' at Mon Jun  1 05:45:51 MDT 2020	[TOP SWAP DECIPH]	3.5665	-272.521698971949	*
>START PTEXT: 'udhr-unicode/udhr-azj_latn.txt.tra' at Mon Jun  1 05:45:55 MDT 2020	[TOP SWAP DECIPH]	3.9073	-276.048054359006
>START PTEXT: 'udhr-unicode/udhr-bam.txt.tra' at Mon Jun  1 05:45:59 MDT 2020	[TOP SWAP DECIPH]	4.2586	-309.716763006882
>START PTEXT: 'udhr-unicode/udhr-ban.txt.tra' at Mon Jun  1 05:46:03 MDT 2020	[TOP SWAP DECIPH]	4.0733	-295.427550941229
>START PTEXT: 'udhr-unicode/udhr-bba.txt.tra' at Mon Jun  1 05:46:07 MDT 2020	[TOP SWAP DECIPH]	4.1907	-305.130142602005
>START PTEXT: 'udhr-unicode/udhr-bci.txt.tra' at Mon Jun  1 05:46:11 MDT 2020	[TOP SWAP DECIPH]	3.7967	-313.813051407379
>START PTEXT: 'udhr-unicode/udhr-bcl.txt.tra' at Mon Jun  1 05:46:15 MDT 2020	[TOP SWAP DECIPH]	4.2422	-288.04571629424
>START PTEXT: 'udhr-unicode/udhr-bel.txt.tra' at Mon Jun  1 05:46:19 MDT 2020	[TOP SWAP DECIPH]	3.5894	-282.621546063614
>START PTEXT: 'udhr-unicode/udhr-bem.txt.tra' at Mon Jun  1 05:46:23 MDT 2020	[TOP SWAP DECIPH]	3.9849	-307.545017061222
>START PTEXT: 'udhr-unicode/udhr-ben.txt.tra' at Mon Jun  1 05:46:27 MDT 2020	[TOP SWAP DECIPH]	3.4524	-294.376039178378
>START PTEXT: 'udhr-unicode/udhr-bfa.txt.tra' at Mon Jun  1 05:46:30 MDT 2020	[TOP SWAP DECIPH]	4.2025	-295.291278999956
>START PTEXT: 'udhr-unicode/udhr-bho.txt.tra' at Mon Jun  1 05:46:34 MDT 2020	[TOP SWAP DECIPH]	3.4754	-310.681229400568
>START PTEXT: 'udhr-unicode/udhr-bin.txt.tra' at Mon Jun  1 05:46:38 MDT 2020	[TOP SWAP DECIPH]	4.4783	-305.846260007469
>START PTEXT: 'udhr-unicode/udhr-bis.txt.tra' at Mon Jun  1 05:46:42 MDT 2020	[TOP SWAP DECIPH]	3.9782	-308.358124296152
>START PTEXT: 'udhr-unicode/udhr-blu.txt.tra' at Mon Jun  1 05:46:46 MDT 2020	[TOP SWAP DECIPH]	4.2676	-312.834213665874
>START PTEXT: 'udhr-unicode/udhr-boa.txt.tra' at Mon Jun  1 05:46:51 MDT 2020	[TOP SWAP DECIPH]	4.1023	-276.364609655931
>START PTEXT: 'udhr-unicode/udhr-bod.txt.tra' at Mon Jun  1 05:46:55 MDT 2020	[TOP SWAP DECIPH]	3.9352	-321.876461438095
>START PTEXT: 'udhr-unicode/udhr-bos_cyrl.txt.tra' at Mon Jun  1 05:46:59 MDT 2020	[TOP SWAP DECIPH]	3.5650	-278.774320076452
>START PTEXT: 'udhr-unicode/udhr-bos_latn.txt.tra' at Mon Jun  1 05:47:02 MDT 2020	[TOP SWAP DECIPH]	4.0963	-272.816771577428
>START PTEXT: 'udhr-unicode/udhr-bre.txt.tra' at Mon Jun  1 05:47:06 MDT 2020	[TOP SWAP DECIPH]	4.1643	-306.216983745251
>START PTEXT: 'udhr-unicode/udhr-btb.txt.tra' at Mon Jun  1 05:47:10 MDT 2020	[TOP SWAP DECIPH]	4.0725	-309.281002786594
>START PTEXT: 'udhr-unicode/udhr-bug.txt.tra' at Mon Jun  1 05:47:15 MDT 2020	[TOP SWAP DECIPH]	4.5574	-312.112014741796
>START PTEXT: 'udhr-unicode/udhr-bul.txt.tra' at Mon Jun  1 05:47:19 MDT 2020	[TOP SWAP DECIPH]	3.7421	-283.384486737703
>START PTEXT: 'udhr-unicode/udhr-cab.txt.tra' at Mon Jun  1 05:47:23 MDT 2020	[TOP SWAP DECIPH]	4.1413	-278.106985022514
>START PTEXT: 'udhr-unicode/udhr-cak.txt.tra' at Mon Jun  1 05:47:27 MDT 2020	[TOP SWAP DECIPH]	3.9675	-301.050544240722
>START PTEXT: 'udhr-unicode/udhr-cat.txt.tra' at Mon Jun  1 05:47:31 MDT 2020	[TOP SWAP DECIPH]	5.0614	-284.122484939384
>START PTEXT: 'udhr-unicode/udhr-cbi.txt.tra' at Mon Jun  1 05:47:36 MDT 2020	[TOP SWAP DECIPH]	4.7082	-303.309075922965
>START PTEXT: 'udhr-unicode/udhr-cbr.txt.tra' at Mon Jun  1 05:47:41 MDT 2020	[TOP SWAP DECIPH]	4.0423	-311.969621269323
>START PTEXT: 'udhr-unicode/udhr-cbs.txt.tra' at Mon Jun  1 05:47:45 MDT 2020	[TOP SWAP DECIPH]	4.0718	-290.291537155673
>START PTEXT: 'udhr-unicode/udhr-cbt.txt.tra' at Mon Jun  1 05:47:49 MDT 2020	[TOP SWAP DECIPH]	4.0662	-341.503155298189
>START PTEXT: 'udhr-unicode/udhr-cbu.txt.tra' at Mon Jun  1 05:47:53 MDT 2020	[TOP SWAP DECIPH]	4.1183	-306.99021632754
>START PTEXT: 'udhr-unicode/udhr-ccx.txt.tra' at Mon Jun  1 05:47:57 MDT 2020	[TOP SWAP DECIPH]	4.0863	-285.428341953891
>START PTEXT: 'udhr-unicode/udhr-ceb.txt.tra' at Mon Jun  1 05:48:01 MDT 2020	[TOP SWAP DECIPH]	3.5559	-326.013113676795
>START PTEXT: 'udhr-unicode/udhr-ces.txt.tra' at Mon Jun  1 05:48:05 MDT 2020	[TOP SWAP DECIPH]	3.9804	-291.885221821241
>START PTEXT: 'udhr-unicode/udhr-cha.txt.tra' at Mon Jun  1 05:48:09 MDT 2020	[TOP SWAP DECIPH]	4.6594	-295.803981683738
>START PTEXT: 'udhr-unicode/udhr-chj.txt.tra' at Mon Jun  1 05:48:13 MDT 2020	[TOP SWAP DECIPH]	3.8626	-340.003828434695
>START PTEXT: 'udhr-unicode/udhr-chk.txt.tra' at Mon Jun  1 05:48:17 MDT 2020	[TOP SWAP DECIPH]	4.5190	-318.574650635452
>START PTEXT: 'udhr-unicode/udhr-cic.txt.tra' at Mon Jun  1 05:48:22 MDT 2020	[TOP SWAP DECIPH]	4.7968	-312.654232911543
>START PTEXT: 'udhr-unicode/udhr-cjk.txt.tra' at Mon Jun  1 05:48:27 MDT 2020	[TOP SWAP DECIPH]	4.1593	-303.7064987122
>START PTEXT: 'udhr-unicode/udhr-cjk_AO.txt.tra' at Mon Jun  1 05:48:31 MDT 2020	[TOP SWAP DECIPH]	4.2078	-303.491761840755
>START PTEXT: 'udhr-unicode/udhr-cjs.txt.tra' at Mon Jun  1 05:48:35 MDT 2020	[TOP SWAP DECIPH]	3.9318	-285.261397227642
>START PTEXT: 'udhr-unicode/udhr-ckb.txt.tra' at Mon Jun  1 05:48:39 MDT 2020	[TOP SWAP DECIPH]	3.8248	-301.153440855261
>START PTEXT: 'udhr-unicode/udhr-cmn_hans.txt.tra' at Mon Jun  1 05:48:43 MDT 2020	[TOP SWAP DECIPH]	
>>> Skipping udhr-unicode/udhr-cmn_hans.txt.tra due to extreme alphabet size mismatch.
>START PTEXT: 'udhr-unicode/udhr-cmn_hant.txt.tra' at Mon Jun  1 05:48:43 MDT 2020	[TOP SWAP DECIPH]	
>>> Skipping udhr-unicode/udhr-cmn_hant.txt.tra due to extreme alphabet size mismatch.
>START PTEXT: 'udhr-unicode/udhr-cnh.txt.tra' at Mon Jun  1 05:48:43 MDT 2020	[TOP SWAP DECIPH]	4.5189	-302.793270246348
>START PTEXT: 'udhr-unicode/udhr-cni.txt.tra' at Mon Jun  1 05:48:47 MDT 2020	[TOP SWAP DECIPH]	4.5382	-320.035816173774
>START PTEXT: 'udhr-unicode/udhr-cof.txt.tra' at Mon Jun  1 05:48:52 MDT 2020	[TOP SWAP DECIPH]	4.7604	-315.609226370304
>START PTEXT: 'udhr-unicode/udhr-cos.txt.tra' at Mon Jun  1 05:48:56 MDT 2020	[TOP SWAP DECIPH]	4.1095	-297.805507630841
>START PTEXT: 'udhr-unicode/udhr-cot.txt.tra' at Mon Jun  1 05:49:01 MDT 2020	[TOP SWAP DECIPH]	4.1560	-301.703454346849
>START PTEXT: 'udhr-unicode/udhr-cpu.txt.tra' at Mon Jun  1 05:49:05 MDT 2020	[TOP SWAP DECIPH]	4.2870	-294.918826505858
>START PTEXT: 'udhr-unicode/udhr-crs.txt.tra' at Mon Jun  1 05:49:09 MDT 2020	[TOP SWAP DECIPH]	4.0825	-293.979514741748
>START PTEXT: 'udhr-unicode/udhr-csa.txt.tra' at Mon Jun  1 05:49:13 MDT 2020	[TOP SWAP DECIPH]	4.5468	-331.342420343072
>START PTEXT: 'udhr-unicode/udhr-csw.txt.tra' at Mon Jun  1 05:49:18 MDT 2020	[TOP SWAP DECIPH]	3.6086	-310.563754068757
>START PTEXT: 'udhr-unicode/udhr-ctd.txt.tra' at Mon Jun  1 05:49:21 MDT 2020	[TOP SWAP DECIPH]	4.1110	-320.933890417061
>START PTEXT: 'udhr-unicode/udhr-cym.txt.tra' at Mon Jun  1 05:49:25 MDT 2020	[TOP SWAP DECIPH]	3.7264	-296.217447339211
>START PTEXT: 'udhr-unicode/udhr-dag.txt.tra' at Mon Jun  1 05:49:29 MDT 2020	[TOP SWAP DECIPH]	4.5233	-294.753448496056
>START PTEXT: 'udhr-unicode/udhr-dan.txt.tra' at Mon Jun  1 05:49:34 MDT 2020	[TOP SWAP DECIPH]	3.9970	-275.982534939419
>START PTEXT: 'udhr-unicode/udhr-ddn.txt.tra' at Mon Jun  1 05:49:38 MDT 2020	[TOP SWAP DECIPH]	4.3949	-305.190827035074
>START PTEXT: 'udhr-unicode/udhr-deu_1901.txt.tra' at Mon Jun  1 05:49:42 MDT 2020	[TOP SWAP DECIPH]	3.9808	-282.245146721421
>START PTEXT: 'udhr-unicode/udhr-deu_1996.txt.tra' at Mon Jun  1 05:49:46 MDT 2020	[TOP SWAP DECIPH]	4.2582	-282.176254401802
>START PTEXT: 'udhr-unicode/udhr-dga.txt.tra' at Mon Jun  1 05:49:50 MDT 2020	[TOP SWAP DECIPH]	4.4486	-311.543948991552
>START PTEXT: 'udhr-unicode/udhr-dip.txt.tra' at Mon Jun  1 05:49:55 MDT 2020	[TOP SWAP DECIPH]	4.2535	-270.726085753438	*
>START PTEXT: 'udhr-unicode/udhr-div.txt.tra' at Mon Jun  1 05:49:59 MDT 2020	[TOP SWAP DECIPH]	3.7861	-292.59781041172
>START PTEXT: 'udhr-unicode/udhr-dyo.txt.tra' at Mon Jun  1 05:50:03 MDT 2020	[TOP SWAP DECIPH]	4.3902	-288.820848848245
>START PTEXT: 'udhr-unicode/udhr-ell_monotonic.txt.tra' at Mon Jun  1 05:50:07 MDT 2020	[TOP SWAP DECIPH]	3.5175	-279.581992932298
>START PTEXT: 'udhr-unicode/udhr-ell_polytonic.txt.tra' at Mon Jun  1 05:50:11 MDT 2020	[TOP SWAP DECIPH]	4.0509	-310.506854231073
>START PTEXT: 'udhr-unicode/udhr-emk.txt.tra' at Mon Jun  1 05:50:15 MDT 2020	[TOP SWAP DECIPH]	4.5506	-322.229240824405
>START PTEXT: 'udhr-unicode/udhr-eml.txt.tra' at Mon Jun  1 05:50:19 MDT 2020	[TOP SWAP DECIPH]	4.9499	-279.676399985906
>START PTEXT: 'udhr-unicode/udhr-eng.txt.tra' at Mon Jun  1 05:50:24 MDT 2020	[TOP SWAP DECIPH]	4.7418	-280.856897655799
>START PTEXT: 'udhr-unicode/udhr-epo.txt.tra' at Mon Jun  1 05:50:29 MDT 2020	[TOP SWAP DECIPH]	4.7393	-295.131247062514
>START PTEXT: 'udhr-unicode/udhr-est.txt.tra' at Mon Jun  1 05:50:34 MDT 2020	[TOP SWAP DECIPH]	4.9554	-269.848560745345	*
>START PTEXT: 'udhr-unicode/udhr-eus.txt.tra' at Mon Jun  1 05:50:39 MDT 2020	[TOP SWAP DECIPH]	4.4789	-308.122193527885
>START PTEXT: 'udhr-unicode/udhr-eve.txt.tra' at Mon Jun  1 05:50:43 MDT 2020	[TOP SWAP DECIPH]	4.5045	-281.354501651634
>START PTEXT: 'udhr-unicode/udhr-evn.txt.tra' at Mon Jun  1 05:50:48 MDT 2020	[TOP SWAP DECIPH]	4.3859	-279.752216631734
>START PTEXT: 'udhr-unicode/udhr-ewe.txt.tra' at Mon Jun  1 05:50:52 MDT 2020	[TOP SWAP DECIPH]	4.8117	-288.016354501518
>START PTEXT: 'udhr-unicode/udhr-fao.txt.tra' at Mon Jun  1 05:50:57 MDT 2020	[TOP SWAP DECIPH]	5.7031	-279.879800607533
>START PTEXT: 'udhr-unicode/udhr-fij.txt.tra' at Mon Jun  1 05:51:03 MDT 2020	[TOP SWAP DECIPH]	5.9127	-330.414959485728
>START PTEXT: 'udhr-unicode/udhr-fin.txt.tra' at Mon Jun  1 05:51:09 MDT 2020	[TOP SWAP DECIPH]	5.8429	-276.609384061265
>START PTEXT: 'udhr-unicode/udhr-flm.txt.tra' at Mon Jun  1 05:51:14 MDT 2020	[TOP SWAP DECIPH]	5.3459	-298.814133151731
>START PTEXT: 'udhr-unicode/udhr-fon.txt.tra' at Mon Jun  1 05:51:20 MDT 2020	[TOP SWAP DECIPH]	5.3401	-329.73177376659
>START PTEXT: 'udhr-unicode/udhr-fra.txt.tra' at Mon Jun  1 05:51:25 MDT 2020	[TOP SWAP DECIPH]	5.2181	-295.290374657219
>START PTEXT: 'udhr-unicode/udhr-fri.txt.tra' at Mon Jun  1 05:51:30 MDT 2020	[TOP SWAP DECIPH]	4.7385	-283.560586944817
>START PTEXT: 'udhr-unicode/udhr-fuc.txt.tra' at Mon Jun  1 05:51:35 MDT 2020	[TOP SWAP DECIPH]	5.6782	-283.871984787655
>START PTEXT: 'udhr-unicode/udhr-fur.txt.tra' at Mon Jun  1 05:51:41 MDT 2020	[TOP SWAP DECIPH]	5.6109	-286.096778703411
>START PTEXT: 'udhr-unicode/udhr-gaa.txt.tra' at Mon Jun  1 05:51:46 MDT 2020	[TOP SWAP DECIPH]	4.7948	-294.280333533556
>START PTEXT: 'udhr-unicode/udhr-gag.txt.tra' at Mon Jun  1 05:51:51 MDT 2020	[TOP SWAP DECIPH]	5.1992	-269.206627733323	*
>START PTEXT: 'udhr-unicode/udhr-gax.txt.tra' at Mon Jun  1 05:51:56 MDT 2020	[TOP SWAP DECIPH]	4.6926	-293.97086294374
>START PTEXT: 'udhr-unicode/udhr-gjn.txt.tra' at Mon Jun  1 05:52:01 MDT 2020	[TOP SWAP DECIPH]	4.4703	-305.785524149538
>START PTEXT: 'udhr-unicode/udhr-gkp.txt.tra' at Mon Jun  1 05:52:06 MDT 2020	[TOP SWAP DECIPH]	4.4119	-295.213573221937
>START PTEXT: 'udhr-unicode/udhr-gla.txt.tra' at Mon Jun  1 05:52:10 MDT 2020	[TOP SWAP DECIPH]	3.7128	-286.034013215963
>START PTEXT: 'udhr-unicode/udhr-gle.txt.tra' at Mon Jun  1 05:52:14 MDT 2020	[TOP SWAP DECIPH]	4.0723	-277.337189115814
>START PTEXT: 'udhr-unicode/udhr-glg.txt.tra' at Mon Jun  1 05:52:18 MDT 2020	[TOP SWAP DECIPH]	3.8707	-287.781134386521
>START PTEXT: 'udhr-unicode/udhr-guc.txt.tra' at Mon Jun  1 05:52:22 MDT 2020	[TOP SWAP DECIPH]	3.9234	-309.253366784907
>START PTEXT: 'udhr-unicode/udhr-gug.txt.tra' at Mon Jun  1 05:52:26 MDT 2020	[TOP SWAP DECIPH]	4.3788	-273.934525044376
>START PTEXT: 'udhr-unicode/udhr-guj.txt.tra' at Mon Jun  1 05:52:30 MDT 2020	[TOP SWAP DECIPH]	3.8620	-296.20493589957
>START PTEXT: 'udhr-unicode/udhr-guu.txt.tra' at Mon Jun  1 05:52:34 MDT 2020	[TOP SWAP DECIPH]	4.0574	-312.032272348128
>START PTEXT: 'udhr-unicode/udhr-gyr.txt.tra' at Mon Jun  1 05:52:38 MDT 2020	[TOP SWAP DECIPH]	4.2374	-305.299692098006
>START PTEXT: 'udhr-unicode/udhr-hat_kreyol.txt.tra' at Mon Jun  1 05:52:42 MDT 2020	[TOP SWAP DECIPH]	4.0147	-296.860239334131
>START PTEXT: 'udhr-unicode/udhr-hat_popular.txt.tra' at Mon Jun  1 05:52:46 MDT 2020	[TOP SWAP DECIPH]	4.1987	-299.970127395904
>START PTEXT: 'udhr-unicode/udhr-hau_NE.txt.tra' at Mon Jun  1 05:52:50 MDT 2020	[TOP SWAP DECIPH]	4.3384	-317.186041168069
>START PTEXT: 'udhr-unicode/udhr-hau_NG.txt.tra' at Mon Jun  1 05:52:55 MDT 2020	[TOP SWAP DECIPH]	4.3748	-312.991690385475
>START PTEXT: 'udhr-unicode/udhr-haw.txt.tra' at Mon Jun  1 05:52:59 MDT 2020	[TOP SWAP DECIPH]	4.1570	-355.362246354959
>START PTEXT: 'udhr-unicode/udhr-hea.txt.tra' at Mon Jun  1 05:53:03 MDT 2020	[TOP SWAP DECIPH]	4.4539	-328.40212085196
>START PTEXT: 'udhr-unicode/udhr-heb.txt.tra' at Mon Jun  1 05:53:08 MDT 2020	[TOP SWAP DECIPH]	3.6258	-274.176289719423
>START PTEXT: 'udhr-unicode/udhr-hil.txt.tra' at Mon Jun  1 05:53:11 MDT 2020	[TOP SWAP DECIPH]	3.9732	-334.474596861605
>START PTEXT: 'udhr-unicode/udhr-hin.txt.tra' at Mon Jun  1 05:53:15 MDT 2020	[TOP SWAP DECIPH]	3.9888	-290.101119964941
>START PTEXT: 'udhr-unicode/udhr-hlt.txt.tra' at Mon Jun  1 05:53:19 MDT 2020	[TOP SWAP DECIPH]	4.6787	-309.791104325266
>START PTEXT: 'udhr-unicode/udhr-hms.txt.tra' at Mon Jun  1 05:53:24 MDT 2020	[TOP SWAP DECIPH]	4.3210	-320.904132602483
>START PTEXT: 'udhr-unicode/udhr-hna.txt.tra' at Mon Jun  1 05:53:28 MDT 2020	[TOP SWAP DECIPH]	4.5649	-305.068780052287
>START PTEXT: 'udhr-unicode/udhr-hni.txt.tra' at Mon Jun  1 05:53:33 MDT 2020	[TOP SWAP DECIPH]	4.9761	-319.335407496005
>START PTEXT: 'udhr-unicode/udhr-hrv.txt.tra' at Mon Jun  1 05:53:38 MDT 2020	[TOP SWAP DECIPH]	3.7311	-280.055720666514
>START PTEXT: 'udhr-unicode/udhr-hsb.txt.tra' at Mon Jun  1 05:53:42 MDT 2020	[TOP SWAP DECIPH]	3.7418	-284.721557906528
>START PTEXT: 'udhr-unicode/udhr-hsf.txt.tra' at Mon Jun  1 05:53:45 MDT 2020	[TOP SWAP DECIPH]	4.3171	-297.991078606361
>START PTEXT: 'udhr-unicode/udhr-hun.txt.tra' at Mon Jun  1 05:53:50 MDT 2020	[TOP SWAP DECIPH]	3.8230	-283.962653860672
>START PTEXT: 'udhr-unicode/udhr-hus.txt.tra' at Mon Jun  1 05:53:54 MDT 2020	[TOP SWAP DECIPH]	4.0917	-296.535667614489
>START PTEXT: 'udhr-unicode/udhr-huu.txt.tra' at Mon Jun  1 05:53:58 MDT 2020	[TOP SWAP DECIPH]	4.5735	-317.200849862582
>START PTEXT: 'udhr-unicode/udhr-hva.txt.tra' at Mon Jun  1 05:54:02 MDT 2020	[TOP SWAP DECIPH]	3.9024	-290.332378962416
>START PTEXT: 'udhr-unicode/udhr-hye.txt.tra' at Mon Jun  1 05:54:06 MDT 2020	[TOP SWAP DECIPH]	3.6338	-273.150449991119
>START PTEXT: 'udhr-unicode/udhr-ibb.txt.tra' at Mon Jun  1 05:54:10 MDT 2020	[TOP SWAP DECIPH]	4.1739	-325.601376087528
>START PTEXT: 'udhr-unicode/udhr-ibo.txt.tra' at Mon Jun  1 05:54:14 MDT 2020	[TOP SWAP DECIPH]	3.9283	-292.868764741885
>START PTEXT: 'udhr-unicode/udhr-ido.txt.tra' at Mon Jun  1 05:54:18 MDT 2020	[TOP SWAP DECIPH]	4.1154	-288.679496228545
>START PTEXT: 'udhr-unicode/udhr-iii.txt.tra' at Mon Jun  1 05:54:22 MDT 2020	[TOP SWAP DECIPH]	
>>> Skipping udhr-unicode/udhr-iii.txt.tra due to extreme alphabet size mismatch.
>START PTEXT: 'udhr-unicode/udhr-ike.txt.tra' at Mon Jun  1 05:54:22 MDT 2020	[TOP SWAP DECIPH]	3.7667	-317.668627362308
>START PTEXT: 'udhr-unicode/udhr-ilo.txt.tra' at Mon Jun  1 05:54:26 MDT 2020	[TOP SWAP DECIPH]	4.0295	-328.568277418965
>START PTEXT: 'udhr-unicode/udhr-ina.txt.tra' at Mon Jun  1 05:54:30 MDT 2020	[TOP SWAP DECIPH]	4.3231	-298.919436714146
>START PTEXT: 'udhr-unicode/udhr-ind.txt.tra' at Mon Jun  1 05:54:34 MDT 2020	[TOP SWAP DECIPH]	4.1953	-294.735592158476
>START PTEXT: 'udhr-unicode/udhr-isl.txt.tra' at Mon Jun  1 05:54:38 MDT 2020	[TOP SWAP DECIPH]	4.2456	-271.081139182882
>START PTEXT: 'udhr-unicode/udhr-ita.txt.tra' at Mon Jun  1 05:54:43 MDT 2020	[TOP SWAP DECIPH]	4.3388	-298.273349243178
>START PTEXT: 'udhr-unicode/udhr-jav.txt.tra' at Mon Jun  1 05:54:47 MDT 2020	[TOP SWAP DECIPH]	4.2033	-290.65283101384
>START PTEXT: 'udhr-unicode/udhr-jiv.txt.tra' at Mon Jun  1 05:54:51 MDT 2020	[TOP SWAP DECIPH]	3.8613	-282.39846340798
>START PTEXT: 'udhr-unicode/udhr-jpn.txt.tra' at Mon Jun  1 05:54:55 MDT 2020	[TOP SWAP DECIPH]	
>>> Skipping udhr-unicode/udhr-jpn.txt.tra due to extreme alphabet size mismatch.
>START PTEXT: 'udhr-unicode/udhr-kal.txt.tra' at Mon Jun  1 05:54:55 MDT 2020	[TOP SWAP DECIPH]	4.0093	-340.751400508539
>START PTEXT: 'udhr-unicode/udhr-kan.txt.tra' at Mon Jun  1 05:54:59 MDT 2020	[TOP SWAP DECIPH]	3.5523	-284.839477901254
>START PTEXT: 'udhr-unicode/udhr-kat.txt.tra' at Mon Jun  1 05:55:03 MDT 2020	[TOP SWAP DECIPH]	3.8649	-275.504388496066
>START PTEXT: 'udhr-unicode/udhr-kaz.txt.tra' at Mon Jun  1 05:55:06 MDT 2020	[TOP SWAP DECIPH]	4.0546	-288.139955735562
>START PTEXT: 'udhr-unicode/udhr-kbp.txt.tra' at Mon Jun  1 05:55:10 MDT 2020	[TOP SWAP DECIPH]	4.5184	-302.938778975891
>START PTEXT: 'udhr-unicode/udhr-kde.txt.tra' at Mon Jun  1 05:55:15 MDT 2020	[TOP SWAP DECIPH]	4.4514	-304.352426373876
>START PTEXT: 'udhr-unicode/udhr-kea.txt.tra' at Mon Jun  1 05:55:19 MDT 2020	[TOP SWAP DECIPH]	4.6324	-288.708630771957
>START PTEXT: 'udhr-unicode/udhr-kek.txt.tra' at Mon Jun  1 05:55:24 MDT 2020	[TOP SWAP DECIPH]	4.4275	-295.3312670038
>START PTEXT: 'udhr-unicode/udhr-kha.txt.tra' at Mon Jun  1 05:55:29 MDT 2020	[TOP SWAP DECIPH]	4.9513	-294.212409337559
>START PTEXT: 'udhr-unicode/udhr-khk.txt.tra' at Mon Jun  1 05:55:33 MDT 2020	[TOP SWAP DECIPH]	4.0328	-277.460841904444
>START PTEXT: 'udhr-unicode/udhr-khm.txt.tra' at Mon Jun  1 05:55:38 MDT 2020	[TOP SWAP DECIPH]	3.8341	-266.723222295558	*
>START PTEXT: 'udhr-unicode/udhr-kin.txt.tra' at Mon Jun  1 05:55:41 MDT 2020	[TOP SWAP DECIPH]	4.3938	-283.609256068298
>START PTEXT: 'udhr-unicode/udhr-kir.txt.tra' at Mon Jun  1 05:55:46 MDT 2020	[TOP SWAP DECIPH]	3.4490	-287.82553309083
>START PTEXT: 'udhr-unicode/udhr-kjh.txt.tra' at Mon Jun  1 05:55:49 MDT 2020	[TOP SWAP DECIPH]	3.9376	-280.35778333497
>START PTEXT: 'udhr-unicode/udhr-kmb.txt.tra' at Mon Jun  1 05:55:53 MDT 2020	[TOP SWAP DECIPH]	4.3929	-309.41667149961
>START PTEXT: 'udhr-unicode/udhr-knc.txt.tra' at Mon Jun  1 05:55:58 MDT 2020	[TOP SWAP DECIPH]	4.2357	-290.698003340341
>START PTEXT: 'udhr-unicode/udhr-kng.txt.tra' at Mon Jun  1 05:56:02 MDT 2020	[TOP SWAP DECIPH]	4.5285	-323.356679120235
>START PTEXT: 'udhr-unicode/udhr-kng_AO.txt.tra' at Mon Jun  1 05:56:06 MDT 2020	[TOP SWAP DECIPH]	4.3001	-292.609470583194
>START PTEXT: 'udhr-unicode/udhr-koo.txt.tra' at Mon Jun  1 05:56:11 MDT 2020	[TOP SWAP DECIPH]	4.4942	-292.330387724798
>START PTEXT: 'udhr-unicode/udhr-kor.txt.tra' at Mon Jun  1 05:56:15 MDT 2020	[TOP SWAP DECIPH]	
>>> Skipping udhr-unicode/udhr-kor.txt.tra due to extreme alphabet size mismatch.
>START PTEXT: 'udhr-unicode/udhr-kqn.txt.tra' at Mon Jun  1 05:56:15 MDT 2020	[TOP SWAP DECIPH]	4.7372	-303.270499110524
>START PTEXT: 'udhr-unicode/udhr-kri.txt.tra' at Mon Jun  1 05:56:20 MDT 2020	[TOP SWAP DECIPH]	4.3045	-299.04894553675
>START PTEXT: 'udhr-unicode/udhr-krl.txt.tra' at Mon Jun  1 05:56:24 MDT 2020	[TOP SWAP DECIPH]	4.7519	-264.869294820189	*
>START PTEXT: 'udhr-unicode/udhr-ktu.txt.tra' at Mon Jun  1 05:56:29 MDT 2020	[TOP SWAP DECIPH]	4.6873	-312.497531803644
>START PTEXT: 'udhr-unicode/udhr-kwi.txt.tra' at Mon Jun  1 05:56:34 MDT 2020	[TOP SWAP DECIPH]	4.6784	-299.15057979927
>START PTEXT: 'udhr-unicode/udhr-lad.txt.tra' at Mon Jun  1 05:56:38 MDT 2020	[TOP SWAP DECIPH]	4.3045	-285.551300112914
>START PTEXT: 'udhr-unicode/udhr-lao.txt.tra' at Mon Jun  1 05:56:43 MDT 2020	[TOP SWAP DECIPH]	4.0417	-281.647400293245
>START PTEXT: 'udhr-unicode/udhr-lat.txt.tra' at Mon Jun  1 05:56:47 MDT 2020	[TOP SWAP DECIPH]	4.3518	-291.583959380173
>START PTEXT: 'udhr-unicode/udhr-lat_1.txt.tra' at Mon Jun  1 05:56:51 MDT 2020	[TOP SWAP DECIPH]	4.2354	-286.17938428642
>START PTEXT: 'udhr-unicode/udhr-lav.txt.tra' at Mon Jun  1 05:56:55 MDT 2020	[TOP SWAP DECIPH]	4.1498	-269.292532810591
>START PTEXT: 'udhr-unicode/udhr-lia.txt.tra' at Mon Jun  1 05:56:59 MDT 2020	[TOP SWAP DECIPH]	3.9690	-299.982189708624
>START PTEXT: 'udhr-unicode/udhr-lin.txt.tra' at Mon Jun  1 05:57:03 MDT 2020	[TOP SWAP DECIPH]	4.9726	-338.827286486782
>START PTEXT: 'udhr-unicode/udhr-lin_tones.txt.tra' at Mon Jun  1 05:57:08 MDT 2020	[TOP SWAP DECIPH]	4.2220	-306.853492910658
>START PTEXT: 'udhr-unicode/udhr-lit.txt.tra' at Mon Jun  1 05:57:13 MDT 2020	[TOP SWAP DECIPH]	4.8079	-282.123569928083
>START PTEXT: 'udhr-unicode/udhr-lnc.txt.tra' at Mon Jun  1 05:57:17 MDT 2020	[TOP SWAP DECIPH]	4.6762	-284.408478923666
>START PTEXT: 'udhr-unicode/udhr-lns.txt.tra' at Mon Jun  1 05:57:22 MDT 2020	[TOP SWAP DECIPH]	4.0886	-337.048718156123
>START PTEXT: 'udhr-unicode/udhr-lot.txt.tra' at Mon Jun  1 05:57:26 MDT 2020	[TOP SWAP DECIPH]	4.6101	-297.258466734809
>START PTEXT: 'udhr-unicode/udhr-loz.txt.tra' at Mon Jun  1 05:57:31 MDT 2020	[TOP SWAP DECIPH]	4.8165	-322.8247466788
>START PTEXT: 'udhr-unicode/udhr-ltz.txt.tra' at Mon Jun  1 05:57:36 MDT 2020	[TOP SWAP DECIPH]	4.5176	-286.648277396168
>START PTEXT: 'udhr-unicode/udhr-lua.txt.tra' at Mon Jun  1 05:57:40 MDT 2020	[TOP SWAP DECIPH]	4.4066	-296.621391225842
>START PTEXT: 'udhr-unicode/udhr-lue.txt.tra' at Mon Jun  1 05:57:45 MDT 2020	[TOP SWAP DECIPH]	4.5347	-290.326509902297
>START PTEXT: 'udhr-unicode/udhr-lug.txt.tra' at Mon Jun  1 05:57:49 MDT 2020	[TOP SWAP DECIPH]	5.3454	-295.651873844898
>START PTEXT: 'udhr-unicode/udhr-lun.txt.tra' at Mon Jun  1 05:57:54 MDT 2020	[TOP SWAP DECIPH]	4.6475	-295.188737269131
>START PTEXT: 'udhr-unicode/udhr-lus.txt.tra' at Mon Jun  1 05:57:59 MDT 2020	[TOP SWAP DECIPH]	4.3074	-289.573963509928
>START PTEXT: 'udhr-unicode/udhr-mad.txt.tra' at Mon Jun  1 05:58:03 MDT 2020	[TOP SWAP DECIPH]	4.3722	-301.13692049257
>START PTEXT: 'udhr-unicode/udhr-mag.txt.tra' at Mon Jun  1 05:58:08 MDT 2020	[TOP SWAP DECIPH]	3.9775	-310.912656710965
>START PTEXT: 'udhr-unicode/udhr-mah.txt.tra' at Mon Jun  1 05:58:12 MDT 2020	[TOP SWAP DECIPH]	4.2577	-348.358081817956
>START PTEXT: 'udhr-unicode/udhr-mai.txt.tra' at Mon Jun  1 05:58:16 MDT 2020	[TOP SWAP DECIPH]	3.7422	-294.706059608081
>START PTEXT: 'udhr-unicode/udhr-mal.txt.tra' at Mon Jun  1 05:58:20 MDT 2020	[TOP SWAP DECIPH]	4.9186	-285.739951510348
>START PTEXT: 'udhr-unicode/udhr-mam.txt.tra' at Mon Jun  1 05:58:25 MDT 2020	[TOP SWAP DECIPH]	4.0784	-309.910030457443
>START PTEXT: 'udhr-unicode/udhr-mar.txt.tra' at Mon Jun  1 05:58:29 MDT 2020	[TOP SWAP DECIPH]	4.0897	-295.042457389325
>START PTEXT: 'udhr-unicode/udhr-maz.txt.tra' at Mon Jun  1 05:58:33 MDT 2020	[TOP SWAP DECIPH]	4.1549	-297.308684110099
>START PTEXT: 'udhr-unicode/udhr-mcd.txt.tra' at Mon Jun  1 05:58:37 MDT 2020	[TOP SWAP DECIPH]	4.6689	-328.80004538605
>START PTEXT: 'udhr-unicode/udhr-mcf.txt.tra' at Mon Jun  1 05:58:42 MDT 2020	[TOP SWAP DECIPH]	4.4437	-315.153078564119
>START PTEXT: 'udhr-unicode/udhr-men.txt.tra' at Mon Jun  1 05:58:46 MDT 2020	[TOP SWAP DECIPH]	4.7488	-289.506011238057
>START PTEXT: 'udhr-unicode/udhr-mic.txt.tra' at Mon Jun  1 05:58:51 MDT 2020	[TOP SWAP DECIPH]	4.1912	-331.332030563071
>START PTEXT: 'udhr-unicode/udhr-min.txt.tra' at Mon Jun  1 05:58:55 MDT 2020	[TOP SWAP DECIPH]	5.2016	-307.178216382626
>START PTEXT: 'udhr-unicode/udhr-miq.txt.tra' at Mon Jun  1 05:59:00 MDT 2020	[TOP SWAP DECIPH]	3.9512	-359.54103979256
>START PTEXT: 'udhr-unicode/udhr-mkd.txt.tra' at Mon Jun  1 05:59:04 MDT 2020	[TOP SWAP DECIPH]	4.3990	-283.386379047617
>START PTEXT: 'udhr-unicode/udhr-mlt.txt.tra' at Mon Jun  1 05:59:09 MDT 2020	[TOP SWAP DECIPH]	4.5510	-281.724554258165
>START PTEXT: 'udhr-unicode/udhr-mly_arab.txt.tra' at Mon Jun  1 05:59:13 MDT 2020	[TOP SWAP DECIPH]	3.9147	-276.138829864236
>START PTEXT: 'udhr-unicode/udhr-mly_latn.txt.tra' at Mon Jun  1 05:59:17 MDT 2020	[TOP SWAP DECIPH]	4.3805	-296.041508471899
>START PTEXT: 'udhr-unicode/udhr-mos.txt.tra' at Mon Jun  1 05:59:22 MDT 2020	[TOP SWAP DECIPH]	4.3194	-300.779416129839
>START PTEXT: 'udhr-unicode/udhr-mri.txt.tra' at Mon Jun  1 05:59:26 MDT 2020	[TOP SWAP DECIPH]	
>>> Skipping udhr-unicode/udhr-mri.txt.tra due to extreme alphabet size mismatch.
>START PTEXT: 'udhr-unicode/udhr-mxi.txt.tra' at Mon Jun  1 05:59:26 MDT 2020	[TOP SWAP DECIPH]	4.3858	-293.326858388832
>START PTEXT: 'udhr-unicode/udhr-mxv.txt.tra' at Mon Jun  1 05:59:30 MDT 2020	[TOP SWAP DECIPH]	4.3980	-326.380804646409
>START PTEXT: 'udhr-unicode/udhr-mya.txt.tra' at Mon Jun  1 05:59:35 MDT 2020	[TOP SWAP DECIPH]	3.9829	-296.560388365447
>START PTEXT: 'udhr-unicode/udhr-mzi.txt.tra' at Mon Jun  1 05:59:39 MDT 2020	[TOP SWAP DECIPH]	4.1247	-309.370403273423
>START PTEXT: 'udhr-unicode/udhr-nav.txt.tra' at Mon Jun  1 05:59:43 MDT 2020	[TOP SWAP DECIPH]	4.3051	-278.534532162827
>START PTEXT: 'udhr-unicode/udhr-nba.txt.tra' at Mon Jun  1 05:59:47 MDT 2020	[TOP SWAP DECIPH]	4.4611	-301.235225206604
>START PTEXT: 'udhr-unicode/udhr-nbl.txt.tra' at Mon Jun  1 05:59:52 MDT 2020	[TOP SWAP DECIPH]	4.5269	-291.272838110238
>START PTEXT: 'udhr-unicode/udhr-ndo.txt.tra' at Mon Jun  1 05:59:56 MDT 2020	[TOP SWAP DECIPH]	4.7709	-286.11953403928
>START PTEXT: 'udhr-unicode/udhr-nds.txt.tra' at Mon Jun  1 06:00:01 MDT 2020	[TOP SWAP DECIPH]	4.5330	-282.398561162477
>START PTEXT: 'udhr-unicode/udhr-nep.txt.tra' at Mon Jun  1 06:00:05 MDT 2020	[TOP SWAP DECIPH]	4.1604	-292.576327576835
>START PTEXT: 'udhr-unicode/udhr-nhn.txt.tra' at Mon Jun  1 06:00:10 MDT 2020	[TOP SWAP DECIPH]	4.5155	-324.923929116783
>START PTEXT: 'udhr-unicode/udhr-njo.txt.tra' at Mon Jun  1 06:00:14 MDT 2020	[TOP SWAP DECIPH]	4.3911	-290.427924075586
>START PTEXT: 'udhr-unicode/udhr-nld.txt.tra' at Mon Jun  1 06:00:19 MDT 2020	[TOP SWAP DECIPH]	4.4689	-278.087480427088
>START PTEXT: 'udhr-unicode/udhr-nno.txt.tra' at Mon Jun  1 06:00:23 MDT 2020	[TOP SWAP DECIPH]	4.4995	-267.500580258803
>START PTEXT: 'udhr-unicode/udhr-nob.txt.tra' at Mon Jun  1 06:00:28 MDT 2020	[TOP SWAP DECIPH]	4.4511	-272.311104368943
>START PTEXT: 'udhr-unicode/udhr-not.txt.tra' at Mon Jun  1 06:00:32 MDT 2020	[TOP SWAP DECIPH]	4.8979	-311.942729286433
>START PTEXT: 'udhr-unicode/udhr-nso.txt.tra' at Mon Jun  1 06:00:37 MDT 2020	[TOP SWAP DECIPH]	4.3958	-303.534188206
>START PTEXT: 'udhr-unicode/udhr-nya_chechewa.txt.tra' at Mon Jun  1 06:00:41 MDT 2020	[TOP SWAP DECIPH]	4.5807	-279.935059998304
>START PTEXT: 'udhr-unicode/udhr-nya_chinyanja.txt.tra' at Mon Jun  1 06:00:46 MDT 2020	[TOP SWAP DECIPH]	4.5189	-285.822883057093
>START PTEXT: 'udhr-unicode/udhr-nym.txt.tra' at Mon Jun  1 06:00:50 MDT 2020	[TOP SWAP DECIPH]	4.2424	-296.569728201332
>START PTEXT: 'udhr-unicode/udhr-nyn.txt.tra' at Mon Jun  1 06:00:55 MDT 2020	[TOP SWAP DECIPH]	4.8881	-295.126024015803
>START PTEXT: 'udhr-unicode/udhr-nzi.txt.tra' at Mon Jun  1 06:01:00 MDT 2020	[TOP SWAP DECIPH]	4.3239	-286.620383450006
>START PTEXT: 'udhr-unicode/udhr-ojb.txt.tra' at Mon Jun  1 06:01:04 MDT 2020	[TOP SWAP DECIPH]	3.9125	-295.833472101337
>START PTEXT: 'udhr-unicode/udhr-oss.txt.tra' at Mon Jun  1 06:01:08 MDT 2020	[TOP SWAP DECIPH]	3.8353	-295.449356823475
>START PTEXT: 'udhr-unicode/udhr-ote.txt.tra' at Mon Jun  1 06:01:12 MDT 2020	[TOP SWAP DECIPH]	4.5192	-316.369310417223
>START PTEXT: 'udhr-unicode/udhr-pam.txt.tra' at Mon Jun  1 06:01:16 MDT 2020	[TOP SWAP DECIPH]	4.6071	-340.896836347411
>START PTEXT: 'udhr-unicode/udhr-pan.txt.tra' at Mon Jun  1 06:01:21 MDT 2020	[TOP SWAP DECIPH]	4.0320	-312.009687064286
>START PTEXT: 'udhr-unicode/udhr-pau.txt.tra' at Mon Jun  1 06:01:25 MDT 2020	[TOP SWAP DECIPH]	4.3286	-328.357440972713
>START PTEXT: 'udhr-unicode/udhr-pbb.txt.tra' at Mon Jun  1 06:01:29 MDT 2020	[TOP SWAP DECIPH]	4.4308	-319.25406087241
>START PTEXT: 'udhr-unicode/udhr-pcd.txt.tra' at Mon Jun  1 06:01:34 MDT 2020	[TOP SWAP DECIPH]	4.2266	-292.035673286941
>START PTEXT: 'udhr-unicode/udhr-pcm.txt.tra' at Mon Jun  1 06:01:38 MDT 2020	[TOP SWAP DECIPH]	4.5583	-298.884026090023
>START PTEXT: 'udhr-unicode/udhr-pes_1.txt.tra' at Mon Jun  1 06:01:42 MDT 2020	[TOP SWAP DECIPH]	3.9190	-286.137740032721
>START PTEXT: 'udhr-unicode/udhr-pes_2.txt.tra' at Mon Jun  1 06:01:46 MDT 2020	[TOP SWAP DECIPH]	4.0878	-285.013127455468
>START PTEXT: 'udhr-unicode/udhr-pis.txt.tra' at Mon Jun  1 06:01:50 MDT 2020	[TOP SWAP DECIPH]	4.0973	-292.651512648148
>START PTEXT: 'udhr-unicode/udhr-plt.txt.tra' at Mon Jun  1 06:01:54 MDT 2020	[TOP SWAP DECIPH]	4.6357	-311.097307544904
>START PTEXT: 'udhr-unicode/udhr-pnb.txt.tra' at Mon Jun  1 06:01:59 MDT 2020	[TOP SWAP DECIPH]	3.9366	-284.594170235359
>START PTEXT: 'udhr-unicode/udhr-pol.txt.tra' at Mon Jun  1 06:02:03 MDT 2020	[TOP SWAP DECIPH]	3.7712	-283.248768763369
>START PTEXT: 'udhr-unicode/udhr-pon.txt.tra' at Mon Jun  1 06:02:07 MDT 2020	[TOP SWAP DECIPH]	3.7641	-334.644252112212
>START PTEXT: 'udhr-unicode/udhr-por_BR.txt.tra' at Mon Jun  1 06:02:11 MDT 2020	[TOP SWAP DECIPH]	4.7591	-285.591665757971
>START PTEXT: 'udhr-unicode/udhr-por_PT.txt.tra' at Mon Jun  1 06:02:15 MDT 2020	[TOP SWAP DECIPH]	4.8284	-289.874399937469
>START PTEXT: 'udhr-unicode/udhr-pov.txt.tra' at Mon Jun  1 06:02:20 MDT 2020	[TOP SWAP DECIPH]	4.4270	-305.606610446638
>START PTEXT: 'udhr-unicode/udhr-ppl.txt.tra' at Mon Jun  1 06:02:25 MDT 2020	[TOP SWAP DECIPH]	4.3489	-318.943638043404
>START PTEXT: 'udhr-unicode/udhr-prq.txt.tra' at Mon Jun  1 06:02:29 MDT 2020	[TOP SWAP DECIPH]	4.1054	-292.751443278752
>START PTEXT: 'udhr-unicode/udhr-prv.txt.tra' at Mon Jun  1 06:02:33 MDT 2020	[TOP SWAP DECIPH]	4.8430	-298.62760008945
>START PTEXT: 'udhr-unicode/udhr-quc.txt.tra' at Mon Jun  1 06:02:38 MDT 2020	[TOP SWAP DECIPH]	4.3208	-310.849944170543
>START PTEXT: 'udhr-unicode/udhr-qud.txt.tra' at Mon Jun  1 06:02:42 MDT 2020	[TOP SWAP DECIPH]	4.4508	-323.728965627652
>START PTEXT: 'udhr-unicode/udhr-qug.txt.tra' at Mon Jun  1 06:02:47 MDT 2020	[TOP SWAP DECIPH]	5.0795	-321.193623192507
>START PTEXT: 'udhr-unicode/udhr-quy.txt.tra' at Mon Jun  1 06:02:52 MDT 2020	[TOP SWAP DECIPH]	4.5689	-299.962154712545
>START PTEXT: 'udhr-unicode/udhr-quz.txt.tra' at Mon Jun  1 06:02:56 MDT 2020	[TOP SWAP DECIPH]	4.1323	-307.987223287573
>START PTEXT: 'udhr-unicode/udhr-qva.txt.tra' at Mon Jun  1 06:03:00 MDT 2020	[TOP SWAP DECIPH]	4.4780	-300.901942359185
>START PTEXT: 'udhr-unicode/udhr-qvc.txt.tra' at Mon Jun  1 06:03:05 MDT 2020	[TOP SWAP DECIPH]	4.3309	-302.111607639107
>START PTEXT: 'udhr-unicode/udhr-qvh.txt.tra' at Mon Jun  1 06:03:09 MDT 2020	[TOP SWAP DECIPH]	4.9520	-303.510325670819
>START PTEXT: 'udhr-unicode/udhr-qvm.txt.tra' at Mon Jun  1 06:03:14 MDT 2020	[TOP SWAP DECIPH]	4.1750	-294.586938813891
>START PTEXT: 'udhr-unicode/udhr-qvn.txt.tra' at Mon Jun  1 06:03:18 MDT 2020	[TOP SWAP DECIPH]	4.7668	-297.372881879852
>START PTEXT: 'udhr-unicode/udhr-qwh.txt.tra' at Mon Jun  1 06:03:23 MDT 2020	[TOP SWAP DECIPH]	4.5812	-295.576273670553
>START PTEXT: 'udhr-unicode/udhr-qxa.txt.tra' at Mon Jun  1 06:03:28 MDT 2020	[TOP SWAP DECIPH]	4.3394	-297.217755376338
>START PTEXT: 'udhr-unicode/udhr-qxn.txt.tra' at Mon Jun  1 06:03:32 MDT 2020	[TOP SWAP DECIPH]	4.5606	-298.494789762438
>START PTEXT: 'udhr-unicode/udhr-qxu.txt.tra' at Mon Jun  1 06:03:37 MDT 2020	[TOP SWAP DECIPH]	4.5208	-311.07114019314
>START PTEXT: 'udhr-unicode/udhr-rar.txt.tra' at Mon Jun  1 06:03:41 MDT 2020	[TOP SWAP DECIPH]	4.0814	-413.72489750031
>START PTEXT: 'udhr-unicode/udhr-rmn.txt.tra' at Mon Jun  1 06:03:45 MDT 2020	[TOP SWAP DECIPH]	4.6535	-291.291526892881
>START PTEXT: 'udhr-unicode/udhr-rmn_1.txt.tra' at Mon Jun  1 06:03:50 MDT 2020	[TOP SWAP DECIPH]	4.6974	-282.575536517257
>START PTEXT: 'udhr-unicode/udhr-rmy.txt.tra' at Mon Jun  1 06:03:55 MDT 2020	[TOP SWAP DECIPH]	4.4070	-276.562119238561
>START PTEXT: 'udhr-unicode/udhr-roh.txt.tra' at Mon Jun  1 06:03:59 MDT 2020	[TOP SWAP DECIPH]	4.2747	-283.443645633431
>START PTEXT: 'udhr-unicode/udhr-ron_1953.txt.tra' at Mon Jun  1 06:04:03 MDT 2020	[TOP SWAP DECIPH]	4.7237	-281.879538472068
>START PTEXT: 'udhr-unicode/udhr-ron_1993.txt.tra' at Mon Jun  1 06:04:08 MDT 2020	[TOP SWAP DECIPH]	4.3248	-280.867187600838
>START PTEXT: 'udhr-unicode/udhr-ron_2006.txt.tra' at Mon Jun  1 06:04:12 MDT 2020	[TOP SWAP DECIPH]	4.4494	-284.352204345373
>START PTEXT: 'udhr-unicode/udhr-run.txt.tra' at Mon Jun  1 06:04:17 MDT 2020	[TOP SWAP DECIPH]	4.6654	-290.427833122091
>START PTEXT: 'udhr-unicode/udhr-rus.txt.tra' at Mon Jun  1 06:04:21 MDT 2020	[TOP SWAP DECIPH]	4.2346	-272.55685432092
>START PTEXT: 'udhr-unicode/udhr-sag.txt.tra' at Mon Jun  1 06:04:26 MDT 2020	[TOP SWAP DECIPH]	4.2208	-320.140695511512
>START PTEXT: 'udhr-unicode/udhr-sah.txt.tra' at Mon Jun  1 06:04:30 MDT 2020	[TOP SWAP DECIPH]	4.3035	-282.767828615408
>START PTEXT: 'udhr-unicode/udhr-san.txt.tra' at Mon Jun  1 06:04:34 MDT 2020	[TOP SWAP DECIPH]	3.8830	-284.230787160077
>START PTEXT: 'udhr-unicode/udhr-sco.txt.tra' at Mon Jun  1 06:04:38 MDT 2020	[TOP SWAP DECIPH]	4.2365	-280.291922567814
>START PTEXT: 'udhr-unicode/udhr-sey.txt.tra' at Mon Jun  1 06:04:42 MDT 2020	[TOP SWAP DECIPH]	4.7025	-318.139674873497
>START PTEXT: 'udhr-unicode/udhr-shk.txt.tra' at Mon Jun  1 06:04:47 MDT 2020	[TOP SWAP DECIPH]	4.2004	-301.57072900466
>START PTEXT: 'udhr-unicode/udhr-shp.txt.tra' at Mon Jun  1 06:04:51 MDT 2020	[TOP SWAP DECIPH]	4.8230	-287.66048868721
>START PTEXT: 'udhr-unicode/udhr-skr.txt.tra' at Mon Jun  1 06:04:56 MDT 2020	[TOP SWAP DECIPH]	4.3415	-291.556225371505
>START PTEXT: 'udhr-unicode/udhr-slk.txt.tra' at Mon Jun  1 06:05:00 MDT 2020	[TOP SWAP DECIPH]	4.2032	-280.466019867706
>START PTEXT: 'udhr-unicode/udhr-slv.txt.tra' at Mon Jun  1 06:05:05 MDT 2020	[TOP SWAP DECIPH]	4.3917	-277.618963086041
>START PTEXT: 'udhr-unicode/udhr-sme.txt.tra' at Mon Jun  1 06:05:09 MDT 2020	[TOP SWAP DECIPH]	4.6812	-276.423318367438
>START PTEXT: 'udhr-unicode/udhr-smo.txt.tra' at Mon Jun  1 06:05:14 MDT 2020	[TOP SWAP DECIPH]	4.1576	-410.45146913645
>START PTEXT: 'udhr-unicode/udhr-sna.txt.tra' at Mon Jun  1 06:05:18 MDT 2020	[TOP SWAP DECIPH]	4.3939	-277.002381371383
>START PTEXT: 'udhr-unicode/udhr-snk.txt.tra' at Mon Jun  1 06:05:22 MDT 2020	[TOP SWAP DECIPH]	5.0757	-325.221501518372
>START PTEXT: 'udhr-unicode/udhr-snn.txt.tra' at Mon Jun  1 06:05:27 MDT 2020	[TOP SWAP DECIPH]	5.0522	-309.78670893464
>START PTEXT: 'udhr-unicode/udhr-som.txt.tra' at Mon Jun  1 06:05:32 MDT 2020	[TOP SWAP DECIPH]	4.1719	-289.131539998679
>START PTEXT: 'udhr-unicode/udhr-sot.txt.tra' at Mon Jun  1 06:05:37 MDT 2020	[TOP SWAP DECIPH]	4.5291	-311.370531300508
>START PTEXT: 'udhr-unicode/udhr-spa.txt.tra' at Mon Jun  1 06:05:41 MDT 2020	[TOP SWAP DECIPH]	4.4751	-292.501690010966
>START PTEXT: 'udhr-unicode/udhr-src.txt.tra' at Mon Jun  1 06:05:46 MDT 2020	[TOP SWAP DECIPH]	4.6023	-287.02999004613
>START PTEXT: 'udhr-unicode/udhr-srp_cyrl.txt.tra' at Mon Jun  1 06:05:50 MDT 2020	[TOP SWAP DECIPH]	3.9605	-284.475887704618
>START PTEXT: 'udhr-unicode/udhr-srp_latn.txt.tra' at Mon Jun  1 06:05:54 MDT 2020	[TOP SWAP DECIPH]	4.5449	-277.530635737285
>START PTEXT: 'udhr-unicode/udhr-srr.txt.tra' at Mon Jun  1 06:05:59 MDT 2020	[TOP SWAP DECIPH]	4.9566	-310.934113547371
>START PTEXT: 'udhr-unicode/udhr-ssw.txt.tra' at Mon Jun  1 06:06:04 MDT 2020	[TOP SWAP DECIPH]	4.4548	-282.698970713511
>START PTEXT: 'udhr-unicode/udhr-suk.txt.tra' at Mon Jun  1 06:06:08 MDT 2020	[TOP SWAP DECIPH]	4.5026	-301.84932535173
>START PTEXT: 'udhr-unicode/udhr-sun.txt.tra' at Mon Jun  1 06:06:13 MDT 2020	[TOP SWAP DECIPH]	4.9215	-297.74670143638
>START PTEXT: 'udhr-unicode/udhr-sus.txt.tra' at Mon Jun  1 06:06:18 MDT 2020	[TOP SWAP DECIPH]	4.4544	-299.323616067934
>START PTEXT: 'udhr-unicode/udhr-swe.txt.tra' at Mon Jun  1 06:06:22 MDT 2020	[TOP SWAP DECIPH]	4.4781	-272.081348559045
>START PTEXT: 'udhr-unicode/udhr-swh.txt.tra' at Mon Jun  1 06:06:26 MDT 2020	[TOP SWAP DECIPH]	4.2911	-296.092690167581
>START PTEXT: 'udhr-unicode/udhr-tah.txt.tra' at Mon Jun  1 06:06:31 MDT 2020	[TOP SWAP DECIPH]	4.2236	-375.607383713883
>START PTEXT: 'udhr-unicode/udhr-tam.txt.tra' at Mon Jun  1 06:06:35 MDT 2020	[TOP SWAP DECIPH]	3.9875	-277.782220710939
>START PTEXT: 'udhr-unicode/udhr-tat.txt.tra' at Mon Jun  1 06:06:39 MDT 2020	[TOP SWAP DECIPH]	3.6637	-288.743329828905
>START PTEXT: 'udhr-unicode/udhr-tbz.txt.tra' at Mon Jun  1 06:06:43 MDT 2020	[TOP SWAP DECIPH]	4.3361	-317.646799108039
>START PTEXT: 'udhr-unicode/udhr-tca.txt.tra' at Mon Jun  1 06:06:47 MDT 2020	[TOP SWAP DECIPH]	4.2107	-315.73056186885
>START PTEXT: 'udhr-unicode/udhr-tem.txt.tra' at Mon Jun  1 06:06:51 MDT 2020	[TOP SWAP DECIPH]	4.1785	-290.586453418899
>START PTEXT: 'udhr-unicode/udhr-tet.txt.tra' at Mon Jun  1 06:06:55 MDT 2020	[TOP SWAP DECIPH]	4.4990	-305.417181684633
>START PTEXT: 'udhr-unicode/udhr-tgk.txt.tra' at Mon Jun  1 06:07:00 MDT 2020	[TOP SWAP DECIPH]	3.8751	-282.148485903732
>START PTEXT: 'udhr-unicode/udhr-tgl.txt.tra' at Mon Jun  1 06:07:04 MDT 2020	[TOP SWAP DECIPH]	4.4867	-335.835936249248
>START PTEXT: 'udhr-unicode/udhr-tha.txt.tra' at Mon Jun  1 06:07:08 MDT 2020	[TOP SWAP DECIPH]	4.0551	-272.083177470539
>START PTEXT: 'udhr-unicode/udhr-tir.txt.tra' at Mon Jun  1 06:07:12 MDT 2020	[TOP SWAP DECIPH]	
>>> Skipping udhr-unicode/udhr-tir.txt.tra due to extreme alphabet size mismatch.
>START PTEXT: 'udhr-unicode/udhr-tiv.txt.tra' at Mon Jun  1 06:07:12 MDT 2020	[TOP SWAP DECIPH]	4.4428	-297.769601289409
>START PTEXT: 'udhr-unicode/udhr-tob.txt.tra' at Mon Jun  1 06:07:17 MDT 2020	[TOP SWAP DECIPH]	4.1993	-312.320186901476
>START PTEXT: 'udhr-unicode/udhr-toi.txt.tra' at Mon Jun  1 06:07:21 MDT 2020	[TOP SWAP DECIPH]	4.8294	-288.480737190643
>START PTEXT: 'udhr-unicode/udhr-toj.txt.tra' at Mon Jun  1 06:07:26 MDT 2020	[TOP SWAP DECIPH]	4.2925	-315.993696863812
>START PTEXT: 'udhr-unicode/udhr-ton.txt.tra' at Mon Jun  1 06:07:30 MDT 2020	[TOP SWAP DECIPH]	4.3098	-387.707509181146
>START PTEXT: 'udhr-unicode/udhr-top.txt.tra' at Mon Jun  1 06:07:34 MDT 2020	[TOP SWAP DECIPH]	4.4324	-316.254831428563
>START PTEXT: 'udhr-unicode/udhr-tpi.txt.tra' at Mon Jun  1 06:07:39 MDT 2020	[TOP SWAP DECIPH]	4.5984	-313.997386045808
>START PTEXT: 'udhr-unicode/udhr-tsn.txt.tra' at Mon Jun  1 06:07:43 MDT 2020	[TOP SWAP DECIPH]	4.7617	-311.658500077019
>START PTEXT: 'udhr-unicode/udhr-tso_MZ.txt.tra' at Mon Jun  1 06:07:48 MDT 2020	[TOP SWAP DECIPH]	4.3910	-301.745255560437
>START PTEXT: 'udhr-unicode/udhr-tsz.txt.tra' at Mon Jun  1 06:07:53 MDT 2020	[TOP SWAP DECIPH]	4.6002	-288.581047830088
>START PTEXT: 'udhr-unicode/udhr-tuk_cyrl.txt.tra' at Mon Jun  1 06:07:57 MDT 2020	[TOP SWAP DECIPH]	3.9276	-283.336997625524
>START PTEXT: 'udhr-unicode/udhr-tuk_latn.txt.tra' at Mon Jun  1 06:08:01 MDT 2020	[TOP SWAP DECIPH]	4.4529	-288.578335633451
>START PTEXT: 'udhr-unicode/udhr-tur.txt.tra' at Mon Jun  1 06:08:06 MDT 2020	[TOP SWAP DECIPH]	4.3595	-277.971589532333
>START PTEXT: 'udhr-unicode/udhr-tyv.txt.tra' at Mon Jun  1 06:08:10 MDT 2020	[TOP SWAP DECIPH]	3.9825	-289.174671541856
>START PTEXT: 'udhr-unicode/udhr-tzc.txt.tra' at Mon Jun  1 06:08:14 MDT 2020	[TOP SWAP DECIPH]	4.7941	-301.375109768419
>START PTEXT: 'udhr-unicode/udhr-tzh.txt.tra' at Mon Jun  1 06:08:19 MDT 2020	[TOP SWAP DECIPH]	4.4462	-290.224041755815
>START PTEXT: 'udhr-unicode/udhr-tzm.txt.tra' at Mon Jun  1 06:08:23 MDT 2020	[TOP SWAP DECIPH]	4.2966	-278.366430955622
>START PTEXT: 'udhr-unicode/udhr-uig_arab.txt.tra' at Mon Jun  1 06:08:27 MDT 2020	[TOP SWAP DECIPH]	3.7322	-290.516744328557
>START PTEXT: 'udhr-unicode/udhr-uig_latn.txt.tra' at Mon Jun  1 06:08:31 MDT 2020	[TOP SWAP DECIPH]	4.5738	-274.901035744379
>START PTEXT: 'udhr-unicode/udhr-ukr.txt.tra' at Mon Jun  1 06:08:36 MDT 2020	[TOP SWAP DECIPH]	3.7018	-281.812473035454
>START PTEXT: 'udhr-unicode/udhr-umb.txt.tra' at Mon Jun  1 06:08:39 MDT 2020	[TOP SWAP DECIPH]	4.3905	-295.925459837775
>START PTEXT: 'udhr-unicode/udhr-ura.txt.tra' at Mon Jun  1 06:08:44 MDT 2020	[TOP SWAP DECIPH]	5.0336	-340.264909795134
>START PTEXT: 'udhr-unicode/udhr-urd.txt.tra' at Mon Jun  1 06:08:49 MDT 2020	[TOP SWAP DECIPH]	4.2724	-283.933812385558
>START PTEXT: 'udhr-unicode/udhr-uzn_cyrl.txt.tra' at Mon Jun  1 06:08:53 MDT 2020	[TOP SWAP DECIPH]	3.9642	-294.726087402227
>START PTEXT: 'udhr-unicode/udhr-uzn_latn.txt.tra' at Mon Jun  1 06:08:57 MDT 2020	[TOP SWAP DECIPH]	4.3809	-283.493647528429
>START PTEXT: 'udhr-unicode/udhr-vai.txt.tra' at Mon Jun  1 06:09:02 MDT 2020	[TOP SWAP DECIPH]	
>>> Skipping udhr-unicode/udhr-vai.txt.tra due to extreme alphabet size mismatch.
>START PTEXT: 'udhr-unicode/udhr-vec.txt.tra' at Mon Jun  1 06:09:02 MDT 2020	[TOP SWAP DECIPH]	4.1540	-295.588142897344
>START PTEXT: 'udhr-unicode/udhr-ven.txt.tra' at Mon Jun  1 06:09:06 MDT 2020	[TOP SWAP DECIPH]	4.5091	-303.820274213071
>START PTEXT: 'udhr-unicode/udhr-vep.txt.tra' at Mon Jun  1 06:09:10 MDT 2020	[TOP SWAP DECIPH]	4.7126	-264.712628996049	*
>START PTEXT: 'udhr-unicode/udhr-vie.txt.tra' at Mon Jun  1 06:09:15 MDT 2020	[TOP SWAP DECIPH]	4.0560	-313.230212640823
>START PTEXT: 'udhr-unicode/udhr-vmw.txt.tra' at Mon Jun  1 06:09:19 MDT 2020	[TOP SWAP DECIPH]	5.1845	-294.735835473325
>START PTEXT: 'udhr-unicode/udhr-war.txt.tra' at Mon Jun  1 06:09:24 MDT 2020	[TOP SWAP DECIPH]	4.5578	-321.179879408665
>START PTEXT: 'udhr-unicode/udhr-wln.txt.tra' at Mon Jun  1 06:09:29 MDT 2020	[TOP SWAP DECIPH]	4.4676	-299.956583437762
>START PTEXT: 'udhr-unicode/udhr-wol.txt.tra' at Mon Jun  1 06:09:33 MDT 2020	[TOP SWAP DECIPH]	4.8364	-301.799098300968
>START PTEXT: 'udhr-unicode/udhr-wwa.txt.tra' at Mon Jun  1 06:09:38 MDT 2020	[TOP SWAP DECIPH]	4.5583	-321.787794959028
>START PTEXT: 'udhr-unicode/udhr-xho.txt.tra' at Mon Jun  1 06:09:43 MDT 2020	[TOP SWAP DECIPH]	4.5858	-289.215591916013
>START PTEXT: 'udhr-unicode/udhr-xsm.txt.tra' at Mon Jun  1 06:09:47 MDT 2020	[TOP SWAP DECIPH]	4.8652	-314.888492180016
>START PTEXT: 'udhr-unicode/udhr-yad.txt.tra' at Mon Jun  1 06:09:52 MDT 2020	[TOP SWAP DECIPH]	4.2921	-307.470173117012
>START PTEXT: 'udhr-unicode/udhr-yao.txt.tra' at Mon Jun  1 06:09:56 MDT 2020	[TOP SWAP DECIPH]	4.5021	-295.070137147875
>START PTEXT: 'udhr-unicode/udhr-yap.txt.tra' at Mon Jun  1 06:10:01 MDT 2020	[TOP SWAP DECIPH]	4.6841	-281.361168511658
>START PTEXT: 'udhr-unicode/udhr-ydd.txt.tra' at Mon Jun  1 06:10:05 MDT 2020	[TOP SWAP DECIPH]	3.6166	-287.800666996761
>START PTEXT: 'udhr-unicode/udhr-ykg.txt.tra' at Mon Jun  1 06:10:09 MDT 2020	[TOP SWAP DECIPH]	4.1840	-272.602076827936
>START PTEXT: 'udhr-unicode/udhr-yor.txt.tra' at Mon Jun  1 06:10:13 MDT 2020	[TOP SWAP DECIPH]	4.3469	-296.489576130169
>START PTEXT: 'udhr-unicode/udhr-yua.txt.tra' at Mon Jun  1 06:10:18 MDT 2020	[TOP SWAP DECIPH]	4.5212	-294.68587535521
>START PTEXT: 'udhr-unicode/udhr-zam.txt.tra' at Mon Jun  1 06:10:22 MDT 2020	[TOP SWAP DECIPH]	4.5991	-326.652714938603
>START PTEXT: 'udhr-unicode/udhr-zro.txt.tra' at Mon Jun  1 06:10:27 MDT 2020	[TOP SWAP DECIPH]	4.5292	-387.617832003742
>START PTEXT: 'udhr-unicode/udhr-ztu.txt.tra' at Mon Jun  1 06:10:31 MDT 2020	[TOP SWAP DECIPH]	4.2402	-313.215274824788
>START PTEXT: 'udhr-unicode/udhr-zul.txt.tra' at Mon Jun  1 06:10:36 MDT 2020	[TOP SWAP DECIPH]	4.3710	-286.132265111774
RESULT:	UNK	vep	-264.7126	0	380	0.0026	1606.6209	0

CIPHERS: 1	CORRECT: 0	ACCURACY: 0.0000	MEAN RECIPROCAL RANK: 0.0026	MEAN CPU TIME: 1606.6209
