1 /udhr-sah.txt.tra 4.9121 -162.272201706476    Change: + 5
2 /udhr-ltz.txt.tra 2.8525 -162.707369204518    Change: + 21
3 /udhr-swe.txt.tra 4.3041 -164.020008507399    Change: + 1
4 /udhr-fin.txt.tra 4.7306 -164.429769704772    Change: - 1
5 /udhr-khk.txt.tra 3.7131 -164.486296227814    Change: + 19
6 /udhr-est.txt.tra 4.1110 -165.778735742546    Change: + 2
7 /udhr-sme.txt.tra 2.6262 -168.436826197699    Change: 0
8 /udhr-roh.txt.tra 4.4604 -169.214069723578    Change: + 1
9 /udhr-kir.txt.tra 2.8790 -169.30258156109    Change: + 45
10 /udhr-eml.txt.tra 2.5003 -170.875904005358    Change: + 63
11 /udhr-tzm.txt.tra 3.2110 -170.921038464509    Change: + 21
12 /udhr-tam.txt.tra 3.1456 -171.008567021898    Change: - 11
13 /udhr-nld.txt.tra 4.6961 -171.664952787896    Change: + 109
14 /udhr-hun.txt.tra 4.2158 -172.715524754256    Change: + 12
15 /udhr-njo.txt.tra 4.9143 -173.225018938939    Change: - 1
16 /udhr-nob.txt.tra 5.0324 -173.531032463679    Change: + 14
17 /udhr-jiv.txt.tra 4.9309 -173.596251455499    Change: + 1
18 /udhr-fri.txt.tra 4.7848 -173.715284826161    Change: + 10
19 /udhr-eng.txt.tra 2.5854 -173.767829945728    Change: - 7
20 /udhr-tur.txt.tra 2.8673 -173.789371586688    Change: + 64
21 /udhr-guc.txt.tra 3.7627 -173.834572665975    Change: + 28
22 /udhr-ykg.txt.tra 4.6014 -174.095108006084    Change: + 150
23 /udhr-krl.txt.tra 2.7840 -174.123230226776    Change: + 15
24 /udhr-qvm.txt.tra 2.6017 -174.343514588643    Change: + 165
25 /udhr-lat.txt.tra 4.6281 -174.515220638336    Change: - 14
26 /udhr-ast.txt.tra 3.6604 -174.53850930427    Change: + 32
27 /udhr-uig_latn.tx 4.8539 -174.592885162736    Change: + 14
28 /udhr-qvc.txt.tra 2.6797 -174.60158976938    Change: + 65
29 /udhr-cym.txt.tra 4.4516 -175.202371948585    Change: + 58
30 /udhr-yap.txt.tra 5.0704 -175.546796598545    Change: + 176
31 /udhr-deu_1901.tx 2.7043 -175.643051652903    Change: + 48
32 /udhr-deu_1996.tx 2.6850 -175.664542178178    Change: + 48
33 /udhr-kat.txt.tra 3.9390 -175.734492950802    Change: + 3
34 /udhr-tyv.txt.tra 2.6210 -175.846199959625    Change: + 154
35 /udhr-gag.txt.tra 4.6890 -175.967121773248    Change: + 40
36 /udhr-sco.txt.tra 2.4179 -176.057678910652    Change: - 31
37 /udhr-uzn_cyrl.tx 4.0094 -176.145437031754    Change: + 100
38 /udhr-bul.txt.tra 2.8100 -176.625820108993    Change: + 43
39 /udhr-dan.txt.tra 2.7326 -176.635814414175    Change: - 37
40 /udhr-sna.txt.tra 2.4621 -176.67018285825    Change: + 77
41 /udhr-mkd.txt.tra 4.4532 -176.927636553812    Change: + 75
42 /udhr-fuc.txt.tra 4.7115 -176.947206574451    Change: + 232
43 /udhr-ita.txt.tra 3.4385 -177.042183311663    Change: + 1
44 /udhr-ron_1953.tx 4.5707 -177.164327932344    Change: + 60
45 /udhr-evn.txt.tra 4.3841 -177.245054652692    Change: - 16
46 /udhr-afr.txt.tra 2.7935 -177.264516593372    Change: + 22
47 /udhr-mxi.txt.tra 2.7383 -177.361176393026    Change: + 25
48 /udhr-nav.txt.tra 2.5509 -177.49945535752    Change: - 1
49 /udhr-vep.txt.tra 2.4902 -177.516082140243    Change: + 8
50 /udhr-eus.txt.tra 4.6079 -177.521371597954    Change: + 89
51 /udhr-lat_1.txt.t 5.3239 -177.639181160558    Change: + 13
52 /udhr-rus.txt.tra 4.4181 -177.928321689243    Change: + 4
53 /udhr-heb.txt.tra 3.3699 -177.942911379699    Change: - 10
54 /udhr-cha.txt.tra 2.8825 -178.022857838529    Change: + 84
55 /udhr-ctd.txt.tra 4.6353 -178.042245019344    Change: + 39
56 /udhr-kwi.txt.tra 3.3805 -178.110665981054    Change: + 29
57 /udhr-agr.txt.tra 2.8064 -178.169677135956    Change: + 90
58 /udhr-kan.txt.tra 4.2044 -178.261407743999    Change: - 43
59 /udhr-ell_monoton 3.5858 -178.435385836848    Change: + 12
60 /udhr-lug.txt.tra 3.2470 -178.45797306558    Change: - 33
61 /udhr-cic.txt.tra 2.6510 -178.561537430662    Change: + 89
62 /udhr-nds.txt.tra 3.1269 -178.919209094045    Change: + 65
63 /udhr-cab.txt.tra 3.0226 -178.949938521504    Change: + 192
64 /udhr-vec.txt.tra 4.8115 -179.158510498481    Change: + 54
65 /udhr-pis.txt.tra 2.7281 -179.195937093436    Change: + 126
66 /udhr-uzn_latn.tx 5.1892 -179.273624973278    Change: + 8
67 /udhr-tgk.txt.tra 4.0591 -179.351853056227    Change: + 62
68 /udhr-arb.txt.tra 2.7744 -179.491986806829    Change: + 35
69 /udhr-cjs.txt.tra 3.1003 -179.79105090523    Change: + 163
70 /udhr-kjh.txt.tra 3.1504 -180.004416685189    Change: + 92
71 /udhr-toi.txt.tra 2.5846 -180.019545077781    Change: - 58
72 /udhr-nno.txt.tra 5.0271 -180.061852619864    Change: - 38
73 /udhr-hrv.txt.tra 4.2017 -180.241346325628    Change: + 70
74 /udhr-tsz.txt.tra 2.4711 -180.250982824011    Change: + 26
75 /udhr-kqn.txt.tra 2.5893 -180.319445862552    Change: + 108
76 /udhr-shp.txt.tra 2.5585 -180.337786177001    Change: + 122
77 /udhr-ron_2006.tx 4.5428 -180.719391592921    Change: + 28
78 /udhr-ron_1993.tx 4.6067 -180.728747253274    Change: + 29
79 /udhr-gkp.txt.tra 4.8187 -180.784222298204    Change: + 218
80 /udhr-xho.txt.tra 3.9712 -180.804836014466    Change: + 28
81 /udhr-bel.txt.tra 2.4590 -181.040193899041    Change: + 51
82 /udhr-acu_1.txt.t 2.7378 -181.040662291283    Change: - 6
83 /udhr-bcl.txt.tra 3.3925 -181.07216436979    Change: + 31
84 /udhr-isl.txt.tra 3.7320 -181.09980006768    Change: + 11
85 /udhr-lad.txt.tra 2.8293 -181.134575185243    Change: - 16
86 /udhr-lin_tones.t 2.6873 -181.165621265825    Change: - 38
87 /udhr-koo.txt.tra 2.7906 -181.214276621169    Change: + 47
88 /udhr-qva.txt.tra 2.5722 -181.234897274083    Change: - 26
89 /udhr-gaa.txt.tra 4.9041 -181.267318974087    Change: + 149
90 /udhr-slk.txt.tra 2.5327 -181.282460023512    Change: - 55
91 /udhr-als.txt.tra 3.0745 -181.441621063548    Change: + 11
92 /udhr-not.txt.tra 4.5347 -181.517306658604    Change: + 130
93 /udhr-fur.txt.tra 4.9141 -181.837830182253    Change: - 26
94 /udhr-guu.txt.tra 4.9204 -181.874605915059    Change: + 54
95 /udhr-crs.txt.tra 2.8075 -181.88030288553    Change: + 41
96 /udhr-san.txt.tra 3.3294 -182.009222706231    Change: - 45
97 /udhr-lav.txt.tra 4.2924 -182.078279961669    Change: + 14
98 /udhr-kea.txt.tra 3.4235 -182.108765009076    Change: + 11
99 /udhr-bos_latn.tx 2.6372 -182.170518856645    Change: - 44
100 /udhr-src.txt.tra 3.8268 -182.338847285169    Change: + 108
101 /udhr-nzi.txt.tra 2.7725 -182.353940302466    Change: + 111
102 /udhr-cbu.txt.tra 2.8072 -182.383033657769    Change: + 10
103 /udhr-vmw.txt.tra 2.6917 -182.533843410852    Change: - 72
104 /udhr-lot.txt.tra 2.5497 -182.606414895845    Change: + 26
105 /udhr-fao.txt.tra 4.8904 -182.685720506825    Change: + 41
106 /udhr-sot.txt.tra 2.6431 -182.756290123672    Change: + 119
107 /udhr-lue.txt.tra 3.0695 -182.762669990884    Change: + 126
108 /udhr-qvh.txt.tra 2.5829 -182.89375889592    Change: - 2
109 /udhr-aka_fante.t 2.8903 -182.913615721057    Change: + 133
110 /udhr-bre.txt.tra 2.9285 -183.013378886295    Change: + 5
111 /udhr-mya.txt.tra 2.2564 -183.069287340408    Change: + 133
112 /udhr-nya_chinyan 2.4809 -183.372853532741    Change: + 116
113 /udhr-aka_asante. 2.3959 -183.412491094001    Change: + 86
114 /udhr-mly_latn.tx 2.7875 -183.428254002217    Change: + 5
115 /udhr-som.txt.tra 2.7907 -183.428905312805    Change: + 70
116 /udhr-sus.txt.tra 4.6101 -183.460050071589    Change: + 53
117 /udhr-pes_2.txt.t 2.3890 -183.527965236454    Change: + 3
118 /udhr-aii.txt.tra 2.3084 -183.538167476014    Change: - 79
119 /udhr-ndo.txt.tra 2.5783 -183.650099192126    Change: - 86
120 /udhr-ban.txt.tra 3.8311 -183.810654146624    Change: - 31
121 /udhr-ukr.txt.tra 4.1168 -183.839560124799    Change: + 76
122 /udhr-tat.txt.tra 2.3199 -183.900027251027    Change: + 33
123 /udhr-bis.txt.tra 3.3350 -183.93151456897    Change: + 36
124 /udhr-gla.txt.tra 3.9299 -183.937265721621    Change: + 16
125 /udhr-kde.txt.tra 3.6873 -183.94898384481    Change: + 49
126 /udhr-ssw.txt.tra 4.4090 -184.038200092069    Change: - 116
127 /udhr-qxa.txt.tra 4.3868 -184.131934673701    Change: - 82
128 /udhr-acu.txt.tra 2.6560 -184.251615904062    Change: + 138
129 /udhr-fra.txt.tra 4.4520 -184.350872773158    Change: - 16
130 /udhr-cos.txt.tra 2.9333 -184.355935312491    Change: - 88
131 /udhr-lia.txt.tra 2.8064 -184.360186573715    Change: + 202
132 /udhr-nyn.txt.tra 2.6913 -184.410864919225    Change: + 28
133 /udhr-alt.txt.tra 2.6457 -184.415961187288    Change: + 35
134 /udhr-yao.txt.tra 4.6126 -184.472631111436    Change: + 83
135 /udhr-gug.txt.tra 4.4426 -184.521606403357    Change: - 116
136 /udhr-gax.txt.tra 4.8699 -184.532693725191    Change: + 67
137 /udhr-ace.txt.tra 2.8040 -184.563578295239    Change: - 54
138 /udhr-mal.txt.tra 4.0373 -184.763382894933    Change: - 85
139 /udhr-por_BR.txt. 3.0468 -184.776698532425    Change: + 18
140 /udhr-eve.txt.tra 4.2765 -184.84399743665    Change: - 17
141 /udhr-tzh.txt.tra 2.4284 -184.866405727147    Change: - 13
142 /udhr-oss.txt.tra 2.2940 -184.89362640865    Change: - 117
143 /udhr-shk.txt.tra 2.5966 -184.956911485601    Change: + 168
144 /udhr-nbl.txt.tra 2.5320 -184.991004718787    Change: - 78
145 /udhr-rmn_1.txt.t 4.3078 -185.019040707701    Change: + 120
146 /udhr-mam.txt.tra 5.0161 -185.032996271342    Change: + 97
147 /udhr-nya_chechew 4.2136 -185.104538974138    Change: - 110
148 /udhr-bem.txt.tra 2.6800 -185.117665655257    Change: - 108
149 /udhr-uig_arab.tx 4.2159 -185.152230986037    Change: - 16
150 /udhr-dip.txt.tra 2.6568 -185.153724920115    Change: + 74
151 /udhr-glg.txt.tra 4.1179 -185.194124805203    Change: - 65
152 /udhr-ayr.txt.tra 4.5892 -185.346198124852    Change: + 15
153 /udhr-boa.txt.tra 2.5674 -185.392983068535    Change: - 1
154 /udhr-srp_latn.tx 4.7407 -185.415478923837    Change: - 55
155 /udhr-umb.txt.tra 4.7736 -185.49349162281    Change: + 9
156 /udhr-cpu.txt.tra 2.7618 -185.560677810375    Change: + 19
157 /udhr-lit.txt.tra 2.4137 -185.598662560938    Change: - 47
158 /udhr-bin.txt.tra 2.3583 -185.598795535923    Change: + 89
159 /udhr-ame.txt.tra 3.2112 -185.605515701958    Change: - 17
160 /udhr-pau.txt.tra 2.7604 -185.670198826578    Change: + 30
161 /udhr-run.txt.tra 4.6847 -185.694976029135    Change: + 18
162 /udhr-kaz.txt.tra 4.0538 -185.732077039394    Change: + 4
163 /udhr-ilo.txt.tra 4.4236 -185.79886291866    Change: - 19
164 /udhr-suk.txt.tra 4.4864 -185.82243625843    Change: + 47
165 /udhr-mlt.txt.tra 4.1369 -185.926320934656    Change: - 145
166 /udhr-srp_cyrl.tx 3.9872 -186.129664349084    Change: + 7
167 /udhr-rmy.txt.tra 4.6832 -186.140622152696    Change: + 17
168 /udhr-khm.txt.tra 3.4880 -186.164617035703    Change: - 146
169 /udhr-tuk_cyrl.tx 2.2808 -186.171390047753    Change: - 20
170 /udhr-auv.txt.tra 4.3544 -186.374546770772    Change: - 124
171 /udhr-mic.txt.tra 4.2151 -186.429728249929    Change: - 30
172 /udhr-ina.txt.tra 4.1873 -186.530359224695    Change: + 54
173 /udhr-mad.txt.tra 2.7039 -186.574887886098    Change: - 75
174 /udhr-quy.txt.tra 2.6064 -186.575818478405    Change: - 84
175 /udhr-wwa.txt.tra 2.6392 -186.577867582775    Change: + 153
176 /udhr-abk.txt.tra 2.2308 -186.612697333461    Change: - 124
177 /udhr-ind.txt.tra 3.8236 -186.660241473887    Change: - 118
178 /udhr-tca.txt.tra 3.7972 -186.670654079235    Change: - 13
179 /udhr-qwh.txt.tra 3.1676 -186.835451976597    Change: - 82
180 /udhr-guj.txt.tra 3.8763 -186.900230928547    Change: + 128
181 /udhr-ceb.txt.tra 2.5145 -186.909174868945    Change: - 23
182 /udhr-cot.txt.tra 2.6320 -186.921375934637    Change: + 53
183 /udhr-chk.txt.tra 2.9787 -187.117471203079    Change: + 87
184 /udhr-bug.txt.tra 3.7820 -187.277027367182    Change: + 37
185 /udhr-pcm.txt.tra 2.7130 -187.323210813976    Change: - 22
186 /udhr-hus.txt.tra 3.7385 -187.449203328994    Change: + 28
187 /udhr-mly_arab.tx 2.2743 -187.47609693245    Change: - 96
188 /udhr-qug.txt.tra 2.5656 -187.574894120469    Change: + 125
189 /udhr-por_PT.txt. 2.7288 -187.616209734255    Change: - 101
190 /udhr-aka_akuapem 2.7108 -187.710980206169    Change: - 112
191 /udhr-slv.txt.tra 2.3066 -187.800074096755    Change: - 121
192 /udhr-kha.txt.tra 4.8404 -187.89607553407    Change: + 13
193 /udhr-008.txt.tra 2.6518 -188.026620706841    Change: + 17
194 /udhr-srr.txt.tra 4.9988 -188.047717363562    Change: + 135
195 /udhr-huu.txt.tra 3.6791 -188.10035427818    Change: + 54
196 /udhr-pam.txt.tra 2.9077 -188.128727805781    Change: + 60
197 /udhr-amc.txt.tra 3.2376 -188.273302430585    Change: - 134
198 /udhr-ido.txt.tra 4.4429 -188.281502364739    Change: - 133
199 /udhr-kal.txt.tra 4.4597 -188.287464086935    Change: - 46
200 /udhr-nso.txt.tra 4.8027 -188.302588153615    Change: + 16
201 /udhr-rmn.txt.tra 4.8725 -188.444706258477    Change: + 1
202 /udhr-pol.txt.tra 2.2734 -188.702750232878    Change: - 106
203 /udhr-ces.txt.tra 2.7541 -188.711094141499    Change: - 7
204 /udhr-flm.txt.tra 5.1844 -188.718170820513    Change: - 4
205 /udhr-qxn.txt.tra 4.4703 -188.722997532027    Change: - 113
206 /udhr-qxu.txt.tra 4.6988 -188.736530070216    Change: + 44
207 /udhr-div.txt.tra 4.3391 -188.752867618867    Change: + 93
208 /udhr-spa.txt.tra 2.6068 -188.754785849453    Change: - 83
209 /udhr-jav.txt.tra 3.5823 -188.762728770957    Change: + 10
210 /udhr-lnc.txt.tra 2.8560 -188.861504468009    Change: - 56
211 /udhr-ppl.txt.tra 2.5787 -188.998438402656    Change: + 35
212 /udhr-amr.txt.tra 3.0218 -189.090786815153    Change: + 40
213 /udhr-btb.txt.tra 3.2175 -189.240573220561    Change: + 46
214 /udhr-kek.txt.tra 4.0559 -189.254289768732    Change: + 98
215 /udhr-cjk.txt.tra 2.8182 -189.32449653346    Change: + 21
216 /udhr-toj.txt.tra 2.6088 -189.330527423736    Change: - 35
217 /udhr-kin.txt.tra 3.8772 -189.354362937772    Change: - 46
218 /udhr-yad.txt.tra 4.6020 -189.360137977277    Change: - 41
219 /udhr-lao.txt.tra 4.0612 -189.38417064331    Change: + 1
220 /udhr-knc.txt.tra 4.5170 -189.399094469546    Change: - 25
221 /udhr-arn.txt.tra 3.3145 -189.472139945491    Change: - 12
222 /udhr-ibo.txt.tra 4.6145 -189.633225772568    Change: + 15
223 /udhr-cnh.txt.tra 4.2752 -189.673508319093    Change: + 50
224 /udhr-prv.txt.tra 2.4905 -189.733440295984    Change: - 174
225 /udhr-epo.txt.tra 2.8283 -189.865950012471    Change: - 165
226 /udhr-mcf.txt.tra 4.6842 -190.133449399746    Change: - 56
227 /udhr-011.txt.tra 2.7992 -190.139337573256    Change: + 87
228 /udhr-bba.txt.tra 3.3537 -190.224285260972    Change: - 50
229 /udhr-ccx.txt.tra 2.6578 -190.345669514174    Change: - 68
230 /udhr-gjn.txt.tra 4.5165 -190.348616270885    Change: + 46
231 /udhr-mai.txt.tra 3.9472 -190.442021835241    Change: + 10
232 /udhr-swh.txt.tra 4.4762 -190.561762916011    Change: + 2
233 /udhr-war.txt.tra 2.6840 -190.599765939862    Change: - 39
234 /udhr-gyr.txt.tra 3.5996 -190.625193783509    Change: - 48
235 /udhr-hau_NG.txt. 4.8561 -190.718364061451    Change: + 61
236 /udhr-hau_NE.txt. 5.0464 -190.725030663393    Change: + 113
237 /udhr-dyo.txt.tra 4.7658 -190.762970207925    Change: + 20
238 /udhr-yua.txt.tra 4.2896 -190.853381562701    Change: - 56
239 /udhr-urd.txt.tra 4.1725 -190.861797796449    Change: + 71
240 /udhr-cat.txt.tra 2.9078 -190.890053090879    Change: - 179
241 /udhr-plt.txt.tra 2.4006 -190.925193679145    Change: + 26
242 /udhr-hat_popular 3.3400 -191.013036604932    Change: + 12
243 /udhr-azj_cyrl.tx 4.2800 -191.196810536753    Change: - 227
244 /udhr-mah.txt.tra 5.0847 -191.340067227632    Change: + 44
245 /udhr-pes_1.txt.t 2.3315 -191.467526645245    Change: - 94
246 /udhr-azj_latn.tx 4.3394 -191.552389496409    Change: - 229
247 /udhr-zam.txt.tra 2.3908 -191.675023708472    Change: + 106
248 /udhr-tgl.txt.tra 4.4356 -191.707359853225    Change: + 20
249 /udhr-skr.txt.tra 2.3153 -191.748679992248    Change: + 11
250 /udhr-prq.txt.tra 2.6037 -191.789919096128    Change: + 42
251 /udhr-dga.txt.tra 2.8390 -191.817262853864    Change: + 53
252 /udhr-kng.txt.tra 3.7195 -191.990908127084    Change: + 31
253 /udhr-tsn.txt.tra 2.4860 -192.004269338477    Change: 0
254 /udhr-bfa.txt.tra 2.7842 -192.029643806997    Change: + 24
255 /udhr-ktu.txt.tra 2.6732 -192.08446107205    Change: + 34
256 /udhr-tet.txt.tra 4.6004 -192.251177304786    Change: - 43
257 /udhr-bos_cyrl.tx 2.1568 -192.293915613941    Change: - 122
258 /udhr-gle.txt.tra 3.3560 -192.37129787147    Change: - 134
259 /udhr-wol.txt.tra 2.7457 -192.440114830644    Change: + 78
260 /udhr-lus.txt.tra 2.5072 -192.468880751033    Change: + 39
261 /udhr-pcd.txt.tra 2.5191 -192.482646037798    Change: - 32
262 /udhr-emk.txt.tra 2.9096 -192.494522777541    Change: + 61
263 /udhr-ben.txt.tra 2.3813 -192.544215945224    Change: - 76
264 /udhr-pov.txt.tra 2.7140 -192.634090806379    Change: - 72
265 /udhr-cbs.txt.tra 2.8059 -192.672527811352    Change: + 29
266 /udhr-ibb.txt.tra 4.6233 -192.697723897805    Change: - 62
267 /udhr-hye.txt.tra 4.3187 -192.716707519515    Change: - 66
268 /udhr-tpi.txt.tra 2.4720 -193.029965543756    Change: - 45
269 /udhr-pon.txt.tra 2.3403 -193.043839366451    Change: - 113
270 /udhr-hsb.txt.tra 3.4985 -193.158557112107    Change: - 149
271 /udhr-cbi.txt.tra 2.8828 -193.229579690704    Change: + 19
272 /udhr-zul.txt.tra 3.1914 -193.280701196363    Change: - 251
273 /udhr-qud.txt.tra 2.5605 -193.384049255777    Change: + 58
274 /udhr-tuk_latn.tx 2.7132 -193.487293894279    Change: - 173
275 /udhr-tha.txt.tra 4.1335 -193.605050423276    Change: - 45
276 /udhr-min.txt.tra 5.2412 -193.703179138705    Change: + 44
277 /udhr-hna.txt.tra 4.3861 -193.803205373115    Change: + 26
278 /udhr-ajg.txt.tra 2.5569 -193.825082027714    Change: + 54
279 /udhr-kri.txt.tra 2.5933 -193.826609288299    Change: + 26
280 /udhr-pnb.txt.tra 2.1606 -194.011479614786    Change: 0
281 /udhr-sun.txt.tra 4.9864 -194.255526146972    Change: - 30
282 /udhr-hil.txt.tra 3.0934 -194.432011981689    Change: - 75
283 /udhr-nep.txt.tra 3.8415 -194.499585206996    Change: - 68
284 /udhr-quz.txt.tra 2.5550 -194.625999912664    Change: - 158
285 /udhr-men.txt.tra 5.0573 -194.860978197937    Change: - 45
286 /udhr-kbp.txt.tra 3.5596 -194.879279134214    Change: - 59
287 /udhr-cak.txt.tra 2.7034 -194.885643811507    Change: - 8
288 /udhr-ewe.txt.tra 4.3666 -195.222044958903    Change: - 49
289 /udhr-nhn.txt.tra 4.6946 -195.242459640474    Change: - 113
290 /udhr-hin.txt.tra 2.9208 -195.341524107489    Change: + 51
291 /udhr-lun.txt.tra 2.4335 -195.391812645107    Change: - 98
292 /udhr-kng_AO.txt. 2.4615 -195.412618908773    Change: + 30
293 /udhr-ojb.txt.tra 2.0184 -195.424569739878    Change: + 45
294 /udhr-cbt.txt.tra 2.9078 -195.481513671702    Change: + 30
295 /udhr-mzi.txt.tra 2.4214 -195.711693402344    Change: + 44
296 /udhr-hva.txt.tra 3.3767 -196.097571133173    Change: - 1
297 /udhr-dag.txt.tra 3.1065 -196.099305260029    Change: + 45
298 /udhr-hlt.txt.tra 3.6947 -196.416374849674    Change: - 23
299 /udhr-quc.txt.tra 2.5706 -196.631777858391    Change: + 26
300 /udhr-cjk_AO.txt. 2.5997 -196.704341098732    Change: - 19
301 /udhr-snk.txt.tra 3.1181 -197.012950440081    Change: + 59
302 /udhr-cni.txt.tra 2.6789 -197.216441053631    Change: - 18
303 /udhr-snn.txt.tra 2.6069 -197.256972293081    Change: + 15
304 /udhr-cbr.txt.tra 3.1927 -197.258351530649    Change: - 33
305 /udhr-maz.txt.tra 4.5185 -197.273706299132    Change: + 21
306 /udhr-ell_polyton 2.1899 -197.450388221436    Change: - 42
307 /udhr-ydd.txt.tra 4.1081 -197.46094301756    Change: + 9
308 /udhr-tbz.txt.tra 2.4870 -197.5653043537    Change: + 1
309 /udhr-lua.txt.tra 3.1185 -197.766764044309    Change: - 232
310 /udhr-ven.txt.tra 2.8988 -197.772416034761    Change: - 62
311 /udhr-top.txt.tra 2.3649 -197.88484923641    Change: - 93
312 /udhr-nym.txt.tra 2.7206 -197.898822914704    Change: - 167
313 /udhr-xsm.txt.tra 4.9048 -197.928272300131    Change: + 45
314 /udhr-mos.txt.tra 2.5157 -198.058498292129    Change: + 3
315 /udhr-ote.txt.tra 2.5786 -198.090012195397    Change: + 39
316 /udhr-mar.txt.tra 4.1232 -198.209681905313    Change: - 234
317 /udhr-ddn.txt.tra 2.7929 -198.234095552281    Change: - 2
318 /udhr-wln.txt.tra 2.2912 -198.239307564311    Change: + 30
319 /udhr-ura.txt.tra 4.5751 -198.653408289309    Change: + 21
320 /udhr-loz.txt.tra 2.7995 -198.745848655599    Change: + 27
321 /udhr-pan.txt.tra 2.1091 -198.773956597049    Change: - 15
322 /udhr-ckb.txt.tra 4.5216 -198.783129604856    Change: - 59
323 /udhr-mcd.txt.tra 4.9058 -198.812401782667    Change: - 92
324 /udhr-tem.txt.tra 4.3846 -198.851376264636    Change: - 144
325 /udhr-tiv.txt.tra 2.7237 -198.949619843031    Change: + 34
326 /udhr-007.txt.tra 2.8061 -199.173496006992    Change: - 57
327 /udhr-bam.txt.tra 4.2037 -199.317512086667    Change: - 26
328 /udhr-arl.txt.tra 3.0484 -199.482734133332    Change: - 70
329 /udhr-sey.txt.tra 2.6277 -199.571679003818    Change: - 68
330 /udhr-nba.txt.tra 2.6140 -199.915596434059    Change: - 85
331 /udhr-tzc.txt.tra 2.4161 -200.51784822299    Change: - 46
332 /udhr-blu.txt.tra 2.8303 -200.874511496111    Change: - 11
333 /udhr-bod.txt.tra 2.3323 -201.257514057927    Change: + 13
334 /udhr-ztu.txt.tra 2.4899 -201.263886517178    Change: - 41
335 /udhr-fij.txt.tra 4.7231 -201.279515422115    Change: 0
336 /udhr-hsf.txt.tra 4.8687 -201.343867481149    Change: - 74
337 /udhr-cof.txt.tra 2.6764 -201.393406436277    Change: - 55
338 /udhr-qvn.txt.tra 2.7728 -201.661250610349    Change: - 207
339 /udhr-hni.txt.tra 5.1283 -201.713947899408    Change: - 37
340 /udhr-tob.txt.tra 2.5398 -201.959160781913    Change: - 6
341 /udhr-lin.txt.tra 2.7447 -202.033095629324    Change: - 55
342 /udhr-miq.txt.tra 4.4387 -202.148955538583    Change: - 12
343 /udhr-kmb.txt.tra 3.3625 -202.263820900199    Change: - 36
344 /udhr-fon.txt.tra 4.3789 -202.548605903362    Change: + 17
345 /udhr-haw.txt.tra 3.3267 -203.323409437636    Change: - 58
346 /udhr-bho.txt.tra 2.0597 -203.352404629778    Change: - 2
347 /udhr-hat_kreyol. 3.0884 -203.437505640644    Change: - 70
348 /udhr-tso_MZ.txt. 2.2106 -203.711516723305    Change: - 57
349 /udhr-009.txt.tra 2.6554 -203.928889190331    Change: - 6
350 /udhr-bci.txt.tra 3.1610 -204.390302064458    Change: + 14
351 /udhr-csw.txt.tra 4.0986 -204.554788420418    Change: + 1
352 /udhr-yor.txt.tra 4.5575 -204.969607227321    Change: + 10
353 /udhr-mag.txt.tra 3.5352 -205.583538455015    Change: - 8
354 /udhr-hea.txt.tra 3.8154 -205.637675213791    Change: + 3
355 /udhr-csa.txt.tra 3.5693 -205.682696298009    Change: + 1
356 /udhr-pbb.txt.tra 2.7179 -206.180549470606    Change: - 84
357 /udhr-sag.txt.tra 4.2463 -206.294997103954    Change: - 7
358 /udhr-mxv.txt.tra 2.6585 -206.540816675364    Change: - 39
359 /udhr-vie.txt.tra 2.4904 -209.714795216469    Change: - 8
360 /udhr-lns.txt.tra 2.3799 -209.7830733538    Change: + 7
361 /udhr-010.txt.tra 2.5574 -211.029390086344    Change: - 63
362 /udhr-auc.txt.tra 4.1223 -212.302529472841    Change: - 7
363 /udhr-ada.txt.tra 2.8233 -212.706790187021    Change: - 36
364 /udhr-hms.txt.tra 4.5660 -214.413948122713    Change: - 28
365 /udhr-tah.txt.tra 4.7666 -215.074983239367    Change: 0
366 /udhr-ton.txt.tra 2.4588 -223.327461193447    Change: - 3
367 /udhr-chj.txt.tra 2.4768 -224.37120684964    Change: + 4
368 /udhr-zro.txt.tra 2.4972 -230.141351208303    Change: - 2
369 /udhr-rar.txt.tra 4.5270 -233.612608870732    Change: 0
370 /udhr-smo.txt.tra 2.5497 -234.319390271083    Change: 0
371 /udhr-mri.txt.tra 2.2172 -240.726057630919    Change: - 3
